assignments/07-lab/data/c_added.csv

X,CH1,CH2,Start,Increment,
Sequence,Volt,Volt,5.672000e-05,2.000000e-09
0,2.56e-01,-1.06e-04,
1,2.64e-01,-8.00e-01,
2,2.56e-01,-8.00e-01,
3,2.64e-01,-1.06e-04,
4,2.56e-01,-1.06e-04,
5,2.64e-01,-1.06e-04,
6,2.56e-01,-8.00e-01,
7,2.64e-01,-1.06e-04,
8,2.56e-01,-1.06e-04,
9,2.64e-01,-8.00e-01,
10,2.56e-01,-1.06e-04,
11,2.64e-01,-1.06e-04,
12,2.56e-01,-1.06e-04,
13,2.64e-01,-8.00e-01,
14,2.56e-01,-8.00e-01,
15,2.64e-01,-1.06e-04,
16,2.56e-01,-1.06e-04,
17,2.64e-01,-8.00e-01,
18,2.64e-01,-8.00e-01,
19,2.64e-01,-1.06e-04,
20,2.56e-01,-1.06e-04,
21,2.64e-01,-1.06e-04,
22,2.64e-01,-8.00e-01,
23,2.64e-01,-1.06e-04,
24,2.64e-01,-1.06e-04,
25,2.64e-01,-1.06e-04,
26,2.64e-01,-8.00e-01,
27,2.64e-01,-1.06e-04,
28,2.56e-01,-1.06e-04,
29,2.64e-01,-1.06e-04,
30,2.64e-01,-8.00e-01,
31,2.64e-01,-1.06e-04,
32,2.56e-01,-1.06e-04,
33,2.64e-01,-8.00e-01,
34,2.64e-01,-8.00e-01,
35,2.64e-01,-1.06e-04,
36,2.56e-01,-1.06e-04,
37,2.64e-01,-1.06e-04,
38,2.64e-01,-1.06e-04,
39,2.64e-01,-1.06e-04,
40,2.64e-01,-1.06e-04,
41,2.72e-01,-1.06e-04,
42,2.64e-01,-8.00e-01,
43,2.64e-01,-1.06e-04,
44,2.64e-01,-1.06e-04,
45,2.64e-01,-1.06e-04,
46,2.64e-01,-8.00e-01,
47,2.64e-01,-1.06e-04,
48,2.64e-01,-1.06e-04,
49,2.72e-01,-8.00e-01,
50,2.64e-01,-1.06e-04,
51,2.64e-01,-1.06e-04,
52,2.64e-01,-1.06e-04,
53,2.72e-01,-1.06e-04,
54,2.64e-01,-8.00e-01,
55,2.64e-01,-1.06e-04,
56,2.64e-01,-1.06e-04,
57,2.72e-01,-8.00e-01,
58,2.64e-01,-1.06e-04,
59,2.72e-01,-1.06e-04,
60,2.64e-01,-1.06e-04,
61,2.72e-01,-1.06e-04,
62,2.64e-01,-1.06e-04,
63,2.64e-01,-1.06e-04,
64,2.64e-01,-1.06e-04,
65,2.72e-01,-8.00e-01,
66,2.64e-01,-1.06e-04,
67,2.72e-01,-8.00e-01,
68,2.56e-01,-1.06e-04,
69,2.72e-01,-1.06e-04,
70,2.64e-01,-8.00e-01,
71,2.64e-01,-1.06e-04,
72,2.64e-01,-1.06e-04,
73,2.72e-01,-1.06e-04,
74,2.64e-01,-1.06e-04,
75,2.72e-01,-1.06e-04,
76,2.64e-01,-1.06e-04,
77,2.72e-01,-8.00e-01,
78,2.64e-01,-8.00e-01,
79,2.64e-01,-1.06e-04,
80,2.64e-01,-1.06e-04,
81,2.72e-01,-8.00e-01,
82,2.64e-01,-1.06e-04,
83,2.72e-01,-1.06e-04,
84,2.64e-01,-1.06e-04,
85,2.72e-01,-1.06e-04,
86,2.64e-01,-8.00e-01,
87,2.64e-01,-1.06e-04,
88,2.64e-01,-1.06e-04,
89,2.72e-01,-8.00e-01,
90,2.64e-01,-1.06e-04,
91,2.72e-01,-1.06e-04,
92,2.64e-01,-1.06e-04,
93,2.72e-01,-1.06e-04,
94,2.64e-01,-8.00e-01,
95,2.72e-01,-1.06e-04,
96,2.64e-01,-1.06e-04,
97,2.72e-01,-8.00e-01,
98,2.64e-01,-1.06e-04,
99,2.72e-01,-1.06e-04,
100,2.64e-01,-1.06e-04,
101,2.72e-01,-1.06e-04,
102,2.72e-01,-8.00e-01,
103,2.72e-01,-1.06e-04,
104,2.64e-01,-1.06e-04,
105,2.72e-01,-1.06e-04,
106,2.72e-01,-8.00e-01,
107,2.72e-01,-1.06e-04,
108,2.64e-01,-1.06e-04,
109,2.72e-01,-1.06e-04,
110,2.72e-01,-1.06e-04,
111,2.72e-01,-1.06e-04,
112,2.64e-01,-1.06e-04,
113,2.72e-01,-8.00e-01,
114,2.64e-01,-8.00e-01,
115,2.72e-01,-1.06e-04,
116,2.64e-01,-1.06e-04,
117,2.80e-01,-1.06e-04,
118,2.72e-01,-8.00e-01,
119,2.72e-01,-1.06e-04,
120,2.72e-01,-1.06e-04,
121,2.80e-01,-8.00e-01,
122,2.72e-01,-1.06e-04,
123,2.72e-01,-1.06e-04,
124,2.64e-01,-1.06e-04,
125,2.80e-01,-1.06e-04,
126,2.72e-01,-8.00e-01,
127,2.72e-01,-1.06e-04,
128,2.64e-01,-1.06e-04,
129,2.72e-01,-8.00e-01,
130,2.72e-01,-1.06e-04,
131,2.72e-01,-1.06e-04,
132,2.72e-01,-1.06e-04,
133,2.80e-01,-1.06e-04,
134,2.72e-01,-1.06e-04,
135,2.72e-01,-1.06e-04,
136,2.72e-01,-1.06e-04,
137,2.80e-01,-1.06e-04,
138,2.72e-01,-1.06e-04,
139,2.72e-01,-1.06e-04,
140,2.72e-01,-1.06e-04,
141,2.80e-01,-1.06e-04,
142,2.72e-01,-1.06e-04,
143,2.72e-01,-1.06e-04,
144,2.72e-01,-1.06e-04,
145,2.80e-01,-1.06e-04,
146,2.72e-01,-8.00e-01,
147,2.72e-01,-1.06e-04,
148,2.72e-01,-1.06e-04,
149,2.80e-01,-1.06e-04,
150,2.72e-01,-1.06e-04,
151,2.72e-01,-1.06e-04,
152,2.72e-01,-1.06e-04,
153,2.80e-01,-8.00e-01,
154,2.72e-01,-1.06e-04,
155,2.72e-01,-1.06e-04,
156,2.72e-01,-1.06e-04,
157,2.80e-01,-1.06e-04,
158,2.72e-01,-1.06e-04,
159,2.72e-01,-1.06e-04,
160,2.72e-01,-1.06e-04,
161,2.80e-01,-8.00e-01,
162,2.72e-01,-1.06e-04,
163,2.72e-01,-1.06e-04,
164,2.72e-01,-1.06e-04,
165,2.80e-01,-1.06e-04,
166,2.72e-01,-8.00e-01,
167,2.72e-01,-1.06e-04,
168,2.72e-01,-1.06e-04,
169,2.80e-01,-1.06e-04,
170,2.72e-01,-8.00e-01,
171,2.80e-01,-1.06e-04,
172,2.72e-01,-1.06e-04,
173,2.80e-01,-1.06e-04,
174,2.72e-01,-8.00e-01,
175,2.72e-01,-1.06e-04,
176,2.72e-01,-1.06e-04,
177,2.80e-01,-1.06e-04,
178,2.72e-01,-1.06e-04,
179,2.80e-01,-1.06e-04,
180,2.72e-01,-1.06e-04,
181,2.80e-01,-1.06e-04,
182,2.72e-01,-1.06e-04,
183,2.80e-01,-1.06e-04,
184,2.72e-01,-1.06e-04,
185,2.80e-01,-1.06e-04,
186,2.72e-01,-8.00e-01,
187,2.80e-01,-1.06e-04,
188,2.72e-01,-1.06e-04,
189,2.80e-01,-1.06e-04,
190,2.72e-01,-1.06e-04,
191,2.80e-01,-1.06e-04,
192,2.72e-01,-1.06e-04,
193,2.80e-01,-1.06e-04,
194,2.72e-01,-8.00e-01,
195,2.80e-01,-1.06e-04,
196,2.72e-01,-1.06e-04,
197,2.80e-01,-1.06e-04,
198,2.80e-01,-1.06e-04,
199,2.80e-01,-1.06e-04,
200,2.72e-01,-1.06e-04,
201,2.80e-01,-1.06e-04,
202,2.80e-01,-8.00e-01,
203,2.80e-01,-1.06e-04,
204,2.80e-01,-1.06e-04,
205,2.80e-01,-1.06e-04,
206,2.80e-01,-8.00e-01,
207,2.80e-01,-1.06e-04,
208,2.80e-01,-1.06e-04,
209,2.80e-01,-1.06e-04,
210,2.72e-01,-1.06e-04,
211,2.80e-01,-1.06e-04,
212,2.80e-01,-1.06e-04,
213,2.80e-01,-1.06e-04,
214,2.80e-01,-8.00e-01,
215,2.80e-01,-1.06e-04,
216,2.80e-01,-1.06e-04,
217,2.80e-01,-1.06e-04,
218,2.80e-01,-1.06e-04,
219,2.80e-01,-1.06e-04,
220,2.72e-01,-1.06e-04,
221,2.80e-01,-1.06e-04,
222,2.80e-01,-1.06e-04,
223,2.80e-01,-1.06e-04,
224,2.80e-01,-1.06e-04,
225,2.96e-01,-1.06e-04,
226,2.80e-01,-8.00e-01,
227,2.80e-01,-1.06e-04,
228,2.80e-01,-1.06e-04,
229,2.96e-01,-1.06e-04,
230,2.80e-01,-1.06e-04,
231,2.80e-01,-1.06e-04,
232,2.80e-01,-1.06e-04,
233,2.96e-01,-1.06e-04,
234,2.80e-01,-8.00e-01,
235,2.80e-01,-1.06e-04,
236,2.80e-01,-1.06e-04,
237,2.96e-01,-1.06e-04,
238,2.80e-01,-1.06e-04,
239,2.80e-01,-1.06e-04,
240,2.80e-01,-1.06e-04,
241,2.96e-01,-1.06e-04,
242,2.80e-01,-1.06e-04,
243,2.80e-01,-1.06e-04,
244,2.80e-01,-1.06e-04,
245,2.96e-01,-1.06e-04,
246,2.80e-01,-8.00e-01,
247,2.80e-01,-1.06e-04,
248,2.80e-01,-1.06e-04,
249,2.96e-01,-1.06e-04,
250,2.80e-01,-8.00e-01,
251,2.80e-01,-1.06e-04,
252,2.80e-01,-1.06e-04,
253,2.96e-01,-1.06e-04,
254,2.80e-01,-8.00e-01,
255,2.80e-01,-1.06e-04,
256,2.80e-01,-1.06e-04,
257,2.96e-01,-1.06e-04,
258,2.80e-01,-1.06e-04,
259,2.96e-01,-1.06e-04,
260,2.80e-01,-1.06e-04,
261,2.96e-01,-1.06e-04,
262,2.80e-01,-1.06e-04,
263,2.80e-01,-1.06e-04,
264,2.80e-01,-1.06e-04,
265,2.96e-01,-8.00e-01,
266,2.80e-01,-1.06e-04,
267,2.96e-01,-8.00e-01,
268,2.80e-01,8.00e-01,
269,2.96e-01,-1.06e-04,
270,2.80e-01,-8.00e-01,
271,2.96e-01,-1.06e-04,
272,2.80e-01,-1.06e-04,
273,2.96e-01,-1.06e-04,
274,2.96e-01,-1.06e-04,
275,2.96e-01,-1.06e-04,
276,2.80e-01,-1.06e-04,
277,2.96e-01,-8.00e-01,
278,2.80e-01,-1.06e-04,
279,2.96e-01,-1.06e-04,
280,2.80e-01,-1.06e-04,
281,2.96e-01,-1.06e-04,
282,2.80e-01,-8.00e-01,
283,2.96e-01,-1.06e-04,
284,2.80e-01,-1.06e-04,
285,2.96e-01,-1.06e-04,
286,2.96e-01,-8.00e-01,
287,2.96e-01,-1.06e-04,
288,2.80e-01,-1.06e-04,
289,2.96e-01,-8.00e-01,
290,2.80e-01,-1.06e-04,
291,2.96e-01,-1.06e-04,
292,2.80e-01,-1.06e-04,
293,2.96e-01,-1.06e-04,
294,2.80e-01,-1.06e-04,
295,2.96e-01,-1.06e-04,
296,2.80e-01,-1.06e-04,
297,2.96e-01,-1.06e-04,
298,2.96e-01,-1.06e-04,
299,2.96e-01,-1.06e-04,
300,2.80e-01,-1.06e-04,
301,2.96e-01,-1.06e-04,
302,2.96e-01,-8.00e-01,
303,2.96e-01,-1.06e-04,
304,2.80e-01,-1.06e-04,
305,2.96e-01,-1.06e-04,
306,2.96e-01,-1.06e-04,
307,2.96e-01,-1.06e-04,
308,2.80e-01,-1.06e-04,
309,2.96e-01,-1.06e-04,
310,2.96e-01,-1.06e-04,
311,2.96e-01,-1.06e-04,
312,2.80e-01,-1.06e-04,
313,3.04e-01,-1.06e-04,
314,2.96e-01,-1.06e-04,
315,2.96e-01,-1.06e-04,
316,2.96e-01,-1.06e-04,
317,2.96e-01,-1.06e-04,
318,2.96e-01,-1.06e-04,
319,2.96e-01,-1.06e-04,
320,2.96e-01,-1.06e-04,
321,3.04e-01,-8.00e-01,
322,2.96e-01,-1.06e-04,
323,2.96e-01,-1.06e-04,
324,2.80e-01,-1.06e-04,
325,3.04e-01,-1.06e-04,
326,2.96e-01,-8.00e-01,
327,2.96e-01,-1.06e-04,
328,2.96e-01,-1.06e-04,
329,3.04e-01,-1.06e-04,
330,2.96e-01,-1.06e-04,
331,2.96e-01,-1.06e-04,
332,2.96e-01,-1.06e-04,
333,3.04e-01,-1.06e-04,
334,2.96e-01,-1.06e-04,
335,2.96e-01,-1.06e-04,
336,2.96e-01,-1.06e-04,
337,3.04e-01,-1.06e-04,
338,2.96e-01,-1.06e-04,
339,2.96e-01,-1.06e-04,
340,2.96e-01,-1.06e-04,
341,3.04e-01,-1.06e-04,
342,2.96e-01,-1.06e-04,
343,2.96e-01,-1.06e-04,
344,2.96e-01,-1.06e-04,
345,3.04e-01,-1.06e-04,
346,2.96e-01,-1.06e-04,
347,3.04e-01,-1.06e-04,
348,2.96e-01,-1.06e-04,
349,3.04e-01,-1.06e-04,
350,2.96e-01,-1.06e-04,
351,2.96e-01,-1.06e-04,
352,2.96e-01,-1.06e-04,
353,3.04e-01,-1.06e-04,
354,2.96e-01,-1.06e-04,
355,3.04e-01,-1.06e-04,
356,2.96e-01,-1.06e-04,
357,3.04e-01,-1.06e-04,
358,2.96e-01,-1.06e-04,
359,2.96e-01,-1.06e-04,
360,2.96e-01,-1.06e-04,
361,3.04e-01,-1.06e-04,
362,2.96e-01,-8.00e-01,
363,3.04e-01,-1.06e-04,
364,2.96e-01,-1.06e-04,
365,3.04e-01,-1.06e-04,
366,2.96e-01,-8.00e-01,
367,3.04e-01,-1.06e-04,
368,2.96e-01,-1.06e-04,
369,3.04e-01,-1.06e-04,
370,2.96e-01,-1.06e-04,
371,3.04e-01,-1.06e-04,
372,2.96e-01,-1.06e-04,
373,3.04e-01,-1.06e-04,
374,3.04e-01,-1.06e-04,
375,3.04e-01,-1.06e-04,
376,2.96e-01,-1.06e-04,
377,3.04e-01,-1.06e-04,
378,2.96e-01,-1.06e-04,
379,3.04e-01,-1.06e-04,
380,2.96e-01,-1.06e-04,
381,3.04e-01,-1.06e-04,
382,3.04e-01,-1.06e-04,
383,3.04e-01,-1.06e-04,
384,2.96e-01,-1.06e-04,
385,3.04e-01,-1.06e-04,
386,2.96e-01,-8.00e-01,
387,3.04e-01,-1.06e-04,
388,2.96e-01,-1.06e-04,
389,3.04e-01,-1.06e-04,
390,3.04e-01,-1.06e-04,
391,3.04e-01,-1.06e-04,
392,2.96e-01,-1.06e-04,
393,3.04e-01,-1.06e-04,
394,3.04e-01,-1.06e-04,
395,3.04e-01,-1.06e-04,
396,2.96e-01,-1.06e-04,
397,3.04e-01,-1.06e-04,
398,3.04e-01,-1.06e-04,
399,3.04e-01,-1.06e-04,
400,3.04e-01,-1.06e-04,
401,3.12e-01,-1.06e-04,
402,3.04e-01,-1.06e-04,
403,3.04e-01,-1.06e-04,
404,2.96e-01,-1.06e-04,
405,3.04e-01,-1.06e-04,
406,3.04e-01,-1.06e-04,
407,3.04e-01,-1.06e-04,
408,2.96e-01,-1.06e-04,
409,3.04e-01,-1.06e-04,
410,3.04e-01,-1.06e-04,
411,3.04e-01,-1.06e-04,
412,3.04e-01,-1.06e-04,
413,3.12e-01,-1.06e-04,
414,3.04e-01,-1.06e-04,
415,3.04e-01,-1.06e-04,
416,2.96e-01,-1.06e-04,
417,3.12e-01,-1.06e-04,
418,3.04e-01,-1.06e-04,
419,3.04e-01,-1.06e-04,
420,3.04e-01,-1.06e-04,
421,3.12e-01,-1.06e-04,
422,3.04e-01,-1.06e-04,
423,3.04e-01,-1.06e-04,
424,3.04e-01,-1.06e-04,
425,3.12e-01,-1.06e-04,
426,3.04e-01,-1.06e-04,
427,3.04e-01,-1.06e-04,
428,3.04e-01,-1.06e-04,
429,3.12e-01,-1.06e-04,
430,3.04e-01,-1.06e-04,
431,3.04e-01,-1.06e-04,
432,3.04e-01,-1.06e-04,
433,3.12e-01,-1.06e-04,
434,3.04e-01,-8.00e-01,
435,3.04e-01,-1.06e-04,
436,3.04e-01,-1.06e-04,
437,3.12e-01,-1.06e-04,
438,3.04e-01,-1.06e-04,
439,3.04e-01,-1.06e-04,
440,3.04e-01,-1.06e-04,
441,3.12e-01,-1.06e-04,
442,3.04e-01,-1.06e-04,
443,3.04e-01,-1.06e-04,
444,3.04e-01,-1.06e-04,
445,3.12e-01,-1.06e-04,
446,3.04e-01,-8.00e-01,
447,3.12e-01,-1.06e-04,
448,3.04e-01,-1.06e-04,
449,3.12e-01,-1.06e-04,
450,3.04e-01,-1.06e-04,
451,3.12e-01,-1.06e-04,
452,3.04e-01,-1.06e-04,
453,3.12e-01,-1.06e-04,
454,3.12e-01,-1.06e-04,
455,3.12e-01,-1.06e-04,
456,3.04e-01,-1.06e-04,
457,3.12e-01,-1.06e-04,
458,3.04e-01,-1.06e-04,
459,3.12e-01,-1.06e-04,
460,3.04e-01,-1.06e-04,
461,3.12e-01,-1.06e-04,
462,3.04e-01,-8.00e-01,
463,3.12e-01,-1.06e-04,
464,3.04e-01,-1.06e-04,
465,3.12e-01,-8.00e-01,
466,3.04e-01,-1.06e-04,
467,3.12e-01,-8.00e-01,
468,3.04e-01,8.00e-01,
469,3.12e-01,-1.06e-04,
470,3.12e-01,-8.00e-01,
471,3.04e-01,8.00e-01,
472,3.04e-01,-1.06e-04,
473,3.12e-01,-1.06e-04,
474,3.04e-01,-1.06e-04,
475,3.12e-01,-1.06e-04,
476,3.04e-01,-1.06e-04,
477,3.12e-01,-1.06e-04,
478,3.12e-01,-1.06e-04,
479,3.12e-01,-1.06e-04,
480,3.04e-01,-1.06e-04,
481,3.12e-01,-1.06e-04,
482,3.12e-01,-1.06e-04,
483,3.12e-01,-1.06e-04,
484,3.04e-01,-1.06e-04,
485,3.12e-01,-1.06e-04,
486,3.12e-01,-8.00e-01,
487,3.12e-01,-1.06e-04,
488,3.04e-01,-1.06e-04,
489,3.12e-01,-1.06e-04,
490,3.12e-01,-1.06e-04,
491,3.12e-01,-1.06e-04,
492,3.04e-01,-1.06e-04,
493,3.12e-01,-1.06e-04,
494,3.12e-01,-1.06e-04,
495,3.12e-01,-1.06e-04,
496,3.12e-01,-1.06e-04,
497,3.20e-01,-1.06e-04,
498,3.12e-01,-1.06e-04,
499,3.12e-01,-1.06e-04,
500,3.04e-01,-1.06e-04,
501,3.20e-01,-1.06e-04,
502,3.12e-01,-1.06e-04,
503,3.12e-01,-1.06e-04,
504,3.12e-01,-1.06e-04,
505,3.12e-01,-1.06e-04,
506,3.12e-01,-8.00e-01,
507,3.12e-01,-1.06e-04,
508,3.04e-01,-1.06e-04,
509,3.20e-01,-1.06e-04,
510,3.12e-01,-1.06e-04,
511,3.12e-01,-1.06e-04,
512,3.12e-01,-1.06e-04,
513,3.20e-01,-1.06e-04,
514,3.12e-01,-8.00e-01,
515,3.12e-01,-1.06e-04,
516,3.04e-01,-1.06e-04,
517,3.20e-01,-1.06e-04,
518,3.12e-01,-1.06e-04,
519,3.12e-01,-1.06e-04,
520,3.12e-01,-1.06e-04,
521,3.20e-01,-1.06e-04,
522,3.12e-01,-1.06e-04,
523,3.12e-01,-1.06e-04,
524,3.12e-01,-1.06e-04,
525,3.20e-01,-1.06e-04,
526,3.12e-01,-1.06e-04,
527,3.12e-01,-1.06e-04,
528,3.12e-01,-1.06e-04,
529,3.20e-01,-1.06e-04,
530,3.12e-01,-1.06e-04,
531,3.20e-01,-1.06e-04,
532,3.12e-01,-1.06e-04,
533,3.20e-01,-1.06e-04,
534,3.12e-01,-8.00e-01,
535,3.20e-01,-1.06e-04,
536,3.12e-01,-1.06e-04,
537,3.20e-01,-1.06e-04,
538,3.12e-01,-1.06e-04,
539,3.20e-01,-1.06e-04,
540,3.12e-01,-1.06e-04,
541,3.20e-01,-1.06e-04,
542,3.12e-01,-1.06e-04,
543,3.20e-01,-1.06e-04,
544,3.12e-01,-1.06e-04,
545,3.20e-01,-1.06e-04,
546,3.12e-01,-1.06e-04,
547,3.20e-01,-1.06e-04,
548,3.12e-01,-1.06e-04,
549,3.20e-01,-1.06e-04,
550,3.20e-01,-1.06e-04,
551,3.20e-01,-1.06e-04,
552,3.12e-01,-1.06e-04,
553,3.20e-01,-1.06e-04,
554,3.12e-01,-1.06e-04,
555,3.20e-01,-1.06e-04,
556,3.12e-01,-1.06e-04,
557,3.20e-01,-1.06e-04,
558,3.12e-01,-1.06e-04,
559,3.20e-01,-1.06e-04,
560,3.12e-01,-1.06e-04,
561,3.20e-01,-1.06e-04,
562,3.12e-01,-1.06e-04,
563,3.20e-01,-1.06e-04,
564,3.12e-01,-1.06e-04,
565,3.20e-01,-1.06e-04,
566,3.20e-01,-1.06e-04,
567,3.20e-01,-1.06e-04,
568,3.12e-01,-1.06e-04,
569,3.20e-01,-1.06e-04,
570,3.20e-01,-1.06e-04,
571,3.20e-01,-1.06e-04,
572,3.12e-01,-1.06e-04,
573,3.20e-01,-1.06e-04,
574,3.20e-01,-1.06e-04,
575,3.20e-01,-1.06e-04,
576,3.12e-01,-1.06e-04,
577,3.20e-01,-8.00e-01,
578,3.20e-01,-1.06e-04,
579,3.20e-01,-1.06e-04,
580,3.12e-01,-1.06e-04,
581,3.20e-01,-1.06e-04,
582,3.20e-01,-8.00e-01,
583,3.20e-01,-1.06e-04,
584,3.20e-01,-1.06e-04,
585,3.20e-01,-1.06e-04,
586,3.20e-01,-8.00e-01,
587,3.20e-01,-1.06e-04,
588,3.12e-01,-1.06e-04,
589,3.28e-01,-1.06e-04,
590,3.20e-01,-1.06e-04,
591,3.20e-01,-1.06e-04,
592,3.20e-01,-1.06e-04,
593,3.28e-01,-1.06e-04,
594,3.20e-01,-1.06e-04,
595,3.20e-01,-1.06e-04,
596,3.12e-01,-1.06e-04,
597,3.28e-01,-1.06e-04,
598,3.20e-01,-1.06e-04,
599,3.20e-01,-1.06e-04,
600,3.12e-01,-1.06e-04,
601,3.20e-01,-1.06e-04,
602,3.20e-01,-1.06e-04,
603,3.20e-01,-1.06e-04,
604,3.20e-01,-1.06e-04,
605,3.28e-01,-1.06e-04,
606,3.20e-01,-1.06e-04,
607,3.20e-01,-1.06e-04,
608,3.20e-01,-1.06e-04,
609,3.28e-01,-1.06e-04,
610,3.20e-01,-1.06e-04,
611,3.20e-01,-1.06e-04,
612,3.20e-01,-1.06e-04,
613,3.28e-01,-1.06e-04,
614,3.20e-01,-1.06e-04,
615,3.20e-01,-1.06e-04,
616,3.20e-01,-1.06e-04,
617,3.28e-01,-1.06e-04,
618,3.20e-01,-1.06e-04,
619,3.28e-01,-1.06e-04,
620,3.20e-01,-1.06e-04,
621,3.28e-01,-1.06e-04,
622,3.20e-01,-1.06e-04,
623,3.28e-01,-1.06e-04,
624,3.20e-01,-1.06e-04,
625,3.28e-01,-1.06e-04,
626,3.20e-01,-8.00e-01,
627,3.20e-01,-1.06e-04,
628,3.20e-01,-1.06e-04,
629,3.28e-01,-1.06e-04,
630,3.20e-01,-1.06e-04,
631,3.20e-01,-1.06e-04,
632,3.20e-01,-1.06e-04,
633,3.28e-01,-1.06e-04,
634,3.20e-01,-1.06e-04,
635,3.20e-01,-1.06e-04,
636,3.20e-01,-1.06e-04,
637,3.28e-01,-1.06e-04,
638,3.20e-01,-1.06e-04,
639,3.20e-01,-1.06e-04,
640,3.20e-01,-1.06e-04,
641,3.28e-01,-1.06e-04,
642,3.20e-01,-1.06e-04,
643,3.28e-01,-1.06e-04,
644,3.20e-01,-1.06e-04,
645,3.28e-01,-1.06e-04,
646,3.20e-01,-8.00e-01,
647,3.28e-01,-1.06e-04,
648,3.20e-01,-1.06e-04,
649,3.28e-01,-8.00e-01,
650,3.20e-01,-1.06e-04,
651,3.28e-01,-1.06e-04,
652,3.20e-01,-1.06e-04,
653,3.28e-01,-1.06e-04,
654,3.28e-01,-1.06e-04,
655,3.20e-01,-1.06e-04,
656,3.28e-01,-1.06e-04,
657,3.28e-01,-1.06e-04,
658,3.20e-01,-1.06e-04,
659,3.28e-01,-1.06e-04,
660,3.20e-01,-1.06e-04,
661,3.28e-01,-1.06e-04,
662,3.28e-01,-1.06e-04,
663,3.28e-01,-1.06e-04,
664,3.20e-01,-1.06e-04,
665,3.28e-01,-8.00e-01,
666,3.20e-01,-1.06e-04,
667,3.28e-01,-8.00e-01,
668,3.20e-01,8.00e-01,
669,3.28e-01,-1.06e-04,
670,3.28e-01,-8.00e-01,
671,3.28e-01,8.00e-01,
672,3.28e-01,-1.06e-04,
673,3.28e-01,-1.06e-04,
674,3.20e-01,-1.06e-04,
675,3.28e-01,-1.06e-04,
676,3.20e-01,-1.06e-04,
677,3.28e-01,-1.06e-04,
678,3.28e-01,-1.06e-04,
679,3.28e-01,-1.06e-04,
680,3.28e-01,-1.06e-04,
681,3.36e-01,-1.06e-04,
682,3.28e-01,-1.06e-04,
683,3.28e-01,-1.06e-04,
684,3.28e-01,-1.06e-04,
685,3.28e-01,-1.06e-04,
686,3.28e-01,-1.06e-04,
687,3.28e-01,-1.06e-04,
688,3.20e-01,-1.06e-04,
689,3.36e-01,-1.06e-04,
690,3.28e-01,-1.06e-04,
691,3.28e-01,-1.06e-04,
692,3.28e-01,-1.06e-04,
693,3.36e-01,-1.06e-04,
694,3.28e-01,-1.06e-04,
695,3.28e-01,-1.06e-04,
696,3.28e-01,-1.06e-04,
697,3.36e-01,-1.06e-04,
698,3.28e-01,-1.06e-04,
699,3.28e-01,-1.06e-04,
700,3.28e-01,-1.06e-04,
701,3.36e-01,-1.06e-04,
702,3.28e-01,-1.06e-04,
703,3.28e-01,-1.06e-04,
704,3.28e-01,-1.06e-04,
705,3.36e-01,-1.06e-04,
706,3.28e-01,-8.00e-01,
707,3.28e-01,-1.06e-04,
708,3.28e-01,-1.06e-04,
709,3.36e-01,-1.06e-04,
710,3.28e-01,-1.06e-04,
711,3.28e-01,-1.06e-04,
712,3.28e-01,-1.06e-04,
713,3.36e-01,-1.06e-04,
714,3.28e-01,-1.06e-04,
715,3.28e-01,-1.06e-04,
716,3.28e-01,-1.06e-04,
717,3.36e-01,-1.06e-04,
718,3.28e-01,-1.06e-04,
719,3.28e-01,-1.06e-04,
720,3.28e-01,-1.06e-04,
721,3.36e-01,-1.06e-04,
722,3.28e-01,-1.06e-04,
723,3.36e-01,-1.06e-04,
724,3.28e-01,-1.06e-04,
725,3.36e-01,-1.06e-04,
726,3.28e-01,-1.06e-04,
727,3.28e-01,-1.06e-04,
728,3.28e-01,-1.06e-04,
729,3.36e-01,-1.06e-04,
730,3.28e-01,-1.06e-04,
731,3.36e-01,-1.06e-04,
732,3.28e-01,-1.06e-04,
733,3.36e-01,-1.06e-04,
734,3.28e-01,-1.06e-04,
735,3.36e-01,-1.06e-04,
736,3.28e-01,-1.06e-04,
737,3.36e-01,-1.06e-04,
738,3.28e-01,-1.06e-04,
739,3.36e-01,-1.06e-04,
740,3.28e-01,-1.06e-04,
741,3.36e-01,-1.06e-04,
742,3.36e-01,-1.06e-04,
743,3.36e-01,-1.06e-04,
744,3.28e-01,-1.06e-04,
745,3.36e-01,-1.06e-04,
746,3.28e-01,-1.06e-04,
747,3.36e-01,-1.06e-04,
748,3.28e-01,-1.06e-04,
749,3.36e-01,-1.06e-04,
750,3.28e-01,-1.06e-04,
751,3.36e-01,-1.06e-04,
752,3.28e-01,-1.06e-04,
753,3.36e-01,-1.06e-04,
754,3.28e-01,-1.06e-04,
755,3.36e-01,-1.06e-04,
756,3.28e-01,-1.06e-04,
757,3.36e-01,-1.06e-04,
758,3.36e-01,-1.06e-04,
759,3.36e-01,-1.06e-04,
760,3.28e-01,-1.06e-04,
761,3.36e-01,-1.06e-04,
762,3.28e-01,-1.06e-04,
763,3.36e-01,-1.06e-04,
764,3.28e-01,-1.06e-04,
765,3.36e-01,-1.06e-04,
766,3.36e-01,-1.06e-04,
767,3.36e-01,-1.06e-04,
768,3.28e-01,-1.06e-04,
769,3.44e-01,-1.06e-04,
770,3.36e-01,-1.06e-04,
771,3.36e-01,-1.06e-04,
772,3.36e-01,-1.06e-04,
773,3.44e-01,-1.06e-04,
774,3.36e-01,-1.06e-04,
775,3.36e-01,-1.06e-04,
776,3.28e-01,-1.06e-04,
777,3.44e-01,-1.06e-04,
778,3.36e-01,-1.06e-04,
779,3.36e-01,-1.06e-04,
780,3.28e-01,-1.06e-04,
781,3.44e-01,-1.06e-04,
782,3.36e-01,-1.06e-04,
783,3.36e-01,-1.06e-04,
784,3.36e-01,-1.06e-04,
785,3.36e-01,-1.06e-04,
786,3.36e-01,-1.06e-04,
787,3.36e-01,-1.06e-04,
788,3.36e-01,-1.06e-04,
789,3.44e-01,-1.06e-04,
790,3.36e-01,-1.06e-04,
791,3.36e-01,-1.06e-04,
792,3.36e-01,-1.06e-04,
793,3.44e-01,-1.06e-04,
794,3.36e-01,-1.06e-04,
795,3.36e-01,-1.06e-04,
796,3.36e-01,-1.06e-04,
797,3.44e-01,-1.06e-04,
798,3.36e-01,-1.06e-04,
799,3.36e-01,-1.06e-04,
800,3.36e-01,-1.06e-04,
801,3.44e-01,-1.06e-04,
802,3.36e-01,-1.06e-04,
803,3.36e-01,-1.06e-04,
804,3.36e-01,-1.06e-04,
805,3.44e-01,-1.06e-04,
806,3.36e-01,-8.00e-01,
807,3.36e-01,-1.06e-04,
808,3.36e-01,-1.06e-04,
809,3.44e-01,-1.06e-04,
810,3.36e-01,-1.06e-04,
811,3.36e-01,-1.06e-04,
812,3.36e-01,-1.06e-04,
813,3.44e-01,-1.06e-04,
814,3.36e-01,-1.06e-04,
815,3.36e-01,-1.06e-04,
816,3.36e-01,-1.06e-04,
817,3.44e-01,-1.06e-04,
818,3.36e-01,-1.06e-04,
819,3.44e-01,-1.06e-04,
820,3.36e-01,-1.06e-04,
821,3.44e-01,-1.06e-04,
822,3.36e-01,-1.06e-04,
823,3.44e-01,-1.06e-04,
824,3.36e-01,-1.06e-04,
825,3.44e-01,-1.06e-04,
826,3.36e-01,-1.06e-04,
827,3.44e-01,-1.06e-04,
828,3.36e-01,-1.06e-04,
829,3.44e-01,-1.06e-04,
830,3.44e-01,-1.06e-04,
831,3.36e-01,-1.06e-04,
832,3.36e-01,-1.06e-04,
833,3.44e-01,-1.06e-04,
834,3.28e-01,-1.06e-04,
