assignments/07-lab/data/clamp_bl.csv

X,CH1,CH2,CH3,Start,Increment,
Sequence,Volt,Volt,Volt,-3.599995e-07,4.000000e-09
0,1.84e-01,-1.60e+00,3.62e+01,
1,1.92e-01,-1.60e+00,3.62e+01,
2,1.92e-01,-1.60e+00,3.62e+01,
3,1.92e-01,-1.60e+00,3.62e+01,
4,1.92e-01,-1.60e+00,3.62e+01,
5,1.92e-01,-1.60e+00,3.62e+01,
6,1.92e-01,-1.60e+00,3.66e+01,
7,1.92e-01,-1.60e+00,3.62e+01,
8,1.92e-01,-1.60e+00,3.62e+01,
9,1.92e-01,-1.60e+00,3.62e+01,
10,2.08e-01,-1.60e+00,3.62e+01,
11,2.08e-01,-1.60e+00,3.62e+01,
12,1.92e-01,-1.60e+00,3.62e+01,
13,1.92e-01,-1.60e+00,3.62e+01,
14,1.92e-01,-1.60e+00,3.62e+01,
15,2.08e-01,-1.60e+00,3.62e+01,
16,2.08e-01,-1.60e+00,3.62e+01,
17,2.08e-01,-1.60e+00,3.62e+01,
18,2.08e-01,-1.60e+00,3.62e+01,
19,2.08e-01,-1.60e+00,3.62e+01,
20,2.08e-01,-1.60e+00,3.62e+01,
21,2.08e-01,-1.60e+00,3.62e+01,
22,2.08e-01,-1.60e+00,3.62e+01,
23,2.08e-01,-1.60e+00,3.62e+01,
24,2.08e-01,-1.60e+00,3.62e+01,
25,2.08e-01,-1.60e+00,3.62e+01,
26,2.08e-01,-1.60e+00,3.62e+01,
27,2.08e-01,-1.60e+00,3.62e+01,
28,2.08e-01,-1.60e+00,3.62e+01,
29,2.08e-01,-1.60e+00,3.62e+01,
30,2.08e-01,-1.60e+00,3.62e+01,
31,2.08e-01,-1.60e+00,3.62e+01,
32,2.08e-01,-1.60e+00,3.62e+01,
33,2.08e-01,-1.60e+00,3.62e+01,
34,2.16e-01,-1.60e+00,3.62e+01,
35,2.08e-01,-1.60e+00,3.62e+01,
36,2.08e-01,-1.60e+00,3.62e+01,
37,2.08e-01,-1.60e+00,3.62e+01,
38,2.16e-01,-1.60e+00,3.62e+01,
39,2.16e-01,-1.60e+00,3.62e+01,
40,2.16e-01,-1.60e+00,3.62e+01,
41,2.16e-01,-1.60e+00,3.62e+01,
42,2.16e-01,-1.60e+00,3.62e+01,
43,2.16e-01,-1.60e+00,3.62e+01,
44,2.08e-01,-1.60e+00,3.62e+01,
45,2.16e-01,-1.60e+00,3.62e+01,
46,2.16e-01,-1.60e+00,3.62e+01,
47,2.16e-01,-1.60e+00,3.62e+01,
48,2.16e-01,-1.06e-04,3.62e+01,
49,2.16e-01,-1.60e+00,3.62e+01,
50,2.16e-01,-1.06e-04,3.62e+01,
51,2.16e-01,-1.06e-04,3.62e+01,
52,2.08e-01,-1.06e-04,3.62e+01,
53,2.08e-01,-1.06e-04,3.62e+01,
54,2.16e-01,-1.06e-04,3.62e+01,
55,2.16e-01,-1.06e-04,3.62e+01,
56,2.16e-01,-1.06e-04,3.62e+01,
57,2.16e-01,8.00e-01,3.62e+01,
58,2.16e-01,8.00e-01,3.62e+01,
59,2.16e-01,8.00e-01,3.62e+01,
60,2.08e-01,8.00e-01,3.62e+01,
61,2.08e-01,8.00e-01,3.62e+01,
62,2.16e-01,2.40e+00,3.62e+01,
63,2.16e-01,2.40e+00,3.62e+01,
64,2.16e-01,2.40e+00,3.62e+01,
65,2.16e-01,2.40e+00,3.62e+01,
66,2.16e-01,2.40e+00,3.62e+01,
67,2.16e-01,2.40e+00,3.62e+01,
68,2.16e-01,3.20e+00,3.62e+01,
69,2.16e-01,3.20e+00,3.62e+01,
70,2.16e-01,3.20e+00,3.62e+01,
71,2.16e-01,4.80e+00,3.62e+01,
72,2.16e-01,4.80e+00,3.62e+01,
73,2.16e-01,4.80e+00,3.62e+01,
74,2.16e-01,6.40e+00,3.62e+01,
75,2.08e-01,6.40e+00,3.66e+01,
76,2.08e-01,7.20e+00,3.62e+01,
77,2.08e-01,7.20e+00,3.62e+01,
78,1.92e-01,9.60e+00,3.62e+01,
79,1.92e-01,1.12e+01,3.62e+01,
80,1.84e-01,1.36e+01,3.62e+01,
81,1.68e-01,1.68e+01,3.62e+01,
82,1.60e-01,2.24e+01,3.66e+01,
83,1.20e-01,2.72e+01,3.66e+01,
84,8.80e-02,3.44e+01,3.66e+01,
85,-1.52e-01,4.08e+01,3.84e+01,
86,-7.76e-01,4.32e+01,4.16e+01,
87,-9.60e-01,4.40e+01,4.18e+01,
88,-8.48e-01,4.32e+01,4.10e+01,
89,-5.84e-01,4.08e+01,3.96e+01,
90,-2.64e-01,3.92e+01,3.88e+01,
91,4.80e-02,3.68e+01,3.68e+01,
92,2.32e-01,3.68e+01,3.68e+01,
93,1.60e-01,3.84e+01,3.78e+01,
94,-7.20e-02,3.92e+01,3.90e+01,
95,-2.72e-01,4.08e+01,4.02e+01,
96,-2.48e-01,4.08e+01,4.02e+01,
97,-4.80e-02,3.92e+01,3.90e+01,
98,1.36e-01,3.84e+01,3.84e+01,
99,1.60e-01,3.84e+01,3.88e+01,
100,0.00e+00,3.92e+01,3.96e+01,
101,-1.76e-01,4.08e+01,4.10e+01,
102,-2.16e-01,4.16e+01,4.10e+01,
103,-9.60e-02,4.08e+01,4.02e+01,
104,6.40e-02,3.92e+01,3.96e+01,
105,1.20e-01,3.92e+01,3.96e+01,
106,4.00e-02,4.08e+01,4.06e+01,
107,-1.04e-01,4.16e+01,4.12e+01,
108,-1.68e-01,4.16e+01,4.12e+01,
109,-1.04e-01,4.08e+01,4.10e+01,
110,1.60e-02,4.08e+01,4.06e+01,
111,8.80e-02,4.08e+01,4.02e+01,
112,4.00e-02,4.08e+01,4.10e+01,
113,-5.60e-02,4.16e+01,4.16e+01,
114,-1.28e-01,4.16e+01,4.18e+01,
115,-9.60e-02,4.16e+01,4.16e+01,
116,-8.00e-03,4.08e+01,4.10e+01,
117,4.80e-02,4.08e+01,4.06e+01,
118,4.00e-02,4.08e+01,4.10e+01,
119,-3.20e-02,4.08e+01,4.16e+01,
120,-9.60e-02,4.16e+01,4.16e+01,
121,-9.60e-02,4.16e+01,4.16e+01,
122,-2.40e-02,4.08e+01,4.12e+01,
123,2.40e-02,4.08e+01,4.10e+01,
124,2.40e-02,4.08e+01,4.10e+01,
125,-2.40e-02,4.08e+01,4.10e+01,
126,-7.20e-02,4.08e+01,4.12e+01,
127,-8.00e-02,4.08e+01,4.12e+01,
128,-3.20e-02,4.08e+01,4.10e+01,
129,0.00e+00,4.08e+01,4.06e+01,
130,1.60e-02,4.08e+01,4.06e+01,
131,-8.00e-03,4.08e+01,4.06e+01,
132,-5.60e-02,4.08e+01,4.10e+01,
133,-2.88e-01,3.84e+01,4.22e+01,
134,-4.80e-01,3.44e+01,4.30e+01,
135,1.20e-01,3.04e+01,3.88e+01,
136,-1.92e-01,2.48e+01,4.18e+01,
137,1.60e-02,2.08e+01,4.02e+01,
138,-3.20e-02,1.68e+01,4.10e+01,
139,4.80e-02,1.44e+01,4.00e+01,
140,6.40e-02,1.20e+01,4.10e+01,
141,6.40e-02,1.12e+01,4.02e+01,
142,1.20e-01,1.12e+01,4.02e+01,
143,8.80e-02,9.60e+00,4.10e+01,
144,1.20e-01,1.12e+01,4.02e+01,
145,1.20e-01,1.12e+01,4.02e+01,
146,1.12e-01,1.20e+01,4.10e+01,
147,1.20e-01,1.44e+01,4.06e+01,
148,8.80e-02,1.68e+01,4.06e+01,
149,6.40e-02,2.08e+01,4.10e+01,
150,4.00e-02,2.48e+01,4.06e+01,
151,0.00e+00,2.96e+01,4.10e+01,
152,-3.20e-02,3.44e+01,4.12e+01,
153,-7.20e-02,3.92e+01,4.12e+01,
154,-1.44e-01,4.32e+01,4.18e+01,
155,-4.16e-01,4.40e+01,4.34e+01,
156,-3.20e-01,4.32e+01,4.22e+01,
157,1.60e-02,3.92e+01,4.02e+01,
158,2.88e-01,3.84e+01,3.90e+01,
159,2.56e-01,3.92e+01,3.96e+01,
160,-2.40e-02,4.08e+01,4.16e+01,
161,-2.64e-01,4.16e+01,4.24e+01,
162,-2.72e-01,4.16e+01,4.22e+01,
163,-7.20e-02,3.92e+01,4.10e+01,
164,-1.52e-01,3.60e+01,4.16e+01,
165,-7.20e-02,3.28e+01,4.12e+01,
166,-8.00e-02,2.96e+01,4.12e+01,
167,-2.40e-02,2.56e+01,4.10e+01,
168,-2.40e-02,2.32e+01,4.12e+01,
169,0.00e+00,2.08e+01,4.10e+01,
170,4.00e-02,1.84e+01,4.10e+01,
171,4.00e-02,1.68e+01,4.12e+01,
172,6.40e-02,1.60e+01,4.06e+01,
173,7.20e-02,1.60e+01,4.10e+01,
174,7.20e-02,1.60e+01,4.10e+01,
175,7.20e-02,1.60e+01,4.10e+01,
176,7.20e-02,1.68e+01,4.10e+01,
177,6.40e-02,1.84e+01,4.10e+01,
178,6.40e-02,2.08e+01,4.10e+01,
179,4.00e-02,2.32e+01,4.12e+01,
180,1.60e-02,2.56e+01,4.12e+01,
181,0.00e+00,2.80e+01,4.12e+01,
182,-2.40e-02,3.20e+01,4.12e+01,
183,-4.80e-02,3.44e+01,4.12e+01,
184,-7.20e-02,3.84e+01,4.12e+01,
185,-9.60e-02,3.92e+01,4.12e+01,
186,-1.04e-01,4.16e+01,4.16e+01,
187,-1.44e-01,4.16e+01,4.16e+01,
188,-1.04e-01,4.08e+01,4.12e+01,
189,0.00e+00,3.92e+01,4.06e+01,
190,4.80e-02,3.92e+01,4.06e+01,
191,-3.84e-01,3.60e+01,4.30e+01,
192,1.12e-01,3.44e+01,3.96e+01,
193,-1.44e-01,3.04e+01,4.18e+01,
194,-4.80e-02,2.80e+01,4.06e+01,
195,-8.00e-03,2.56e+01,4.12e+01,
196,-8.00e-03,2.32e+01,4.06e+01,
197,0.00e+00,2.08e+01,4.12e+01,
198,2.40e-02,2.00e+01,4.06e+01,
199,4.80e-02,1.84e+01,4.06e+01,
200,2.40e-02,1.84e+01,4.10e+01,
201,6.40e-02,1.84e+01,4.06e+01,
202,6.40e-02,1.84e+01,4.06e+01,
203,4.80e-02,1.84e+01,4.10e+01,
204,6.40e-02,2.00e+01,4.06e+01,
205,4.00e-02,2.08e+01,4.06e+01,
206,4.00e-02,2.32e+01,4.10e+01,
207,2.40e-02,2.48e+01,4.06e+01,
208,0.00e+00,2.72e+01,4.10e+01,
209,-8.00e-03,2.96e+01,4.10e+01,
210,-2.40e-02,3.20e+01,4.10e+01,
211,-4.80e-02,3.44e+01,4.10e+01,
212,-7.20e-02,3.68e+01,4.12e+01,
213,-7.20e-02,3.84e+01,4.10e+01,
214,-8.00e-02,3.84e+01,4.12e+01,
215,-8.00e-02,3.92e+01,4.10e+01,
216,-9.60e-02,3.84e+01,4.10e+01,
217,-9.60e-02,3.68e+01,4.12e+01,
218,-8.00e-02,3.60e+01,4.10e+01,
219,-7.20e-02,3.28e+01,4.10e+01,
220,-7.20e-02,3.20e+01,4.10e+01,
221,-4.80e-02,2.96e+01,4.10e+01,
222,-3.20e-02,2.72e+01,4.10e+01,
223,-2.40e-02,2.48e+01,4.10e+01,
224,0.00e+00,2.32e+01,4.06e+01,
225,1.60e-02,2.24e+01,4.06e+01,
226,2.40e-02,2.08e+01,4.10e+01,
227,4.00e-02,2.00e+01,4.10e+01,
228,4.00e-02,2.00e+01,4.06e+01,
229,4.00e-02,2.00e+01,4.06e+01,
230,4.80e-02,2.00e+01,4.10e+01,
231,4.00e-02,2.08e+01,4.06e+01,
232,4.00e-02,2.24e+01,4.10e+01,
233,2.40e-02,2.32e+01,4.10e+01,
234,1.60e-02,2.48e+01,4.10e+01,
235,0.00e+00,2.72e+01,4.10e+01,
236,-8.00e-03,2.80e+01,4.10e+01,
237,-2.40e-02,3.04e+01,4.10e+01,
238,-3.20e-02,3.28e+01,4.12e+01,
239,-4.80e-02,3.44e+01,4.12e+01,
240,-5.60e-02,3.60e+01,4.10e+01,
241,-7.20e-02,3.60e+01,4.10e+01,
242,-7.20e-02,3.68e+01,4.12e+01,
243,-8.00e-02,3.68e+01,4.12e+01,
244,-8.00e-02,3.60e+01,4.12e+01,
245,-7.20e-02,3.44e+01,4.12e+01,
246,-7.20e-02,3.28e+01,4.12e+01,
247,-5.60e-02,3.20e+01,4.10e+01,
248,-4.80e-02,2.96e+01,4.10e+01,
249,-3.20e-02,2.80e+01,4.10e+01,
250,-2.40e-02,2.56e+01,4.10e+01,
251,-8.00e-03,2.48e+01,4.10e+01,
252,0.00e+00,2.32e+01,4.10e+01,
253,1.60e-02,2.24e+01,4.10e+01,
254,2.40e-02,2.24e+01,4.10e+01,
255,2.40e-02,2.08e+01,4.10e+01,
256,2.40e-02,2.08e+01,4.06e+01,
257,4.00e-02,2.08e+01,4.10e+01,
258,4.00e-02,2.24e+01,4.10e+01,
259,2.40e-02,2.24e+01,4.10e+01,
260,2.40e-02,2.32e+01,4.10e+01,
261,1.60e-02,2.48e+01,4.10e+01,
262,0.00e+00,2.72e+01,4.10e+01,
263,-8.00e-03,2.80e+01,4.10e+01,
264,-2.40e-02,2.96e+01,4.10e+01,
265,-3.20e-02,3.04e+01,4.10e+01,
266,-4.80e-02,3.28e+01,4.12e+01,
267,-4.80e-02,3.28e+01,4.10e+01,
268,-5.60e-02,3.44e+01,4.10e+01,
269,-5.60e-02,3.44e+01,4.10e+01,
270,-5.60e-02,3.44e+01,4.12e+01,
271,-7.20e-02,3.44e+01,4.10e+01,
272,-5.60e-02,3.28e+01,4.10e+01,
273,-5.60e-02,3.20e+01,4.10e+01,
274,-4.80e-02,3.04e+01,4.10e+01,
275,-4.80e-02,2.96e+01,4.10e+01,
276,-3.20e-02,2.80e+01,4.10e+01,
277,-2.40e-02,2.72e+01,4.10e+01,
278,-8.00e-03,2.56e+01,4.10e+01,
279,0.00e+00,2.48e+01,4.10e+01,
280,0.00e+00,2.32e+01,4.06e+01,
281,1.60e-02,2.32e+01,4.06e+01,
282,1.60e-02,2.24e+01,4.10e+01,
283,2.40e-02,2.24e+01,4.06e+01,
284,2.40e-02,2.24e+01,4.06e+01,
285,2.40e-02,2.32e+01,4.10e+01,
286,2.40e-02,2.32e+01,4.10e+01,
287,1.60e-02,2.48e+01,4.10e+01,
288,1.60e-02,2.56e+01,4.06e+01,
289,0.00e+00,2.72e+01,4.10e+01,
290,-8.00e-03,2.80e+01,4.10e+01,
291,-8.00e-03,2.96e+01,4.10e+01,
292,-2.40e-02,3.04e+01,4.10e+01,
293,-3.20e-02,3.20e+01,4.10e+01,
294,-4.80e-02,3.20e+01,4.10e+01,
295,-4.80e-02,3.28e+01,4.10e+01,
296,-4.80e-02,3.28e+01,4.10e+01,
297,-5.60e-02,3.28e+01,4.10e+01,
298,-5.60e-02,3.28e+01,4.10e+01,
299,-5.60e-02,3.20e+01,4.10e+01,
300,-4.80e-02,3.20e+01,4.10e+01,
301,-4.80e-02,3.04e+01,4.10e+01,
302,-3.20e-02,2.96e+01,4.10e+01,
303,-3.20e-02,2.80e+01,4.10e+01,
304,-2.40e-02,2.72e+01,4.10e+01,
305,-8.00e-03,2.56e+01,4.06e+01,
306,-8.00e-03,2.56e+01,4.10e+01,
307,0.00e+00,2.48e+01,4.10e+01,
308,0.00e+00,2.48e+01,4.10e+01,
309,1.60e-02,2.32e+01,4.10e+01,
310,1.60e-02,2.32e+01,4.10e+01,
311,1.60e-02,2.32e+01,4.06e+01,
312,1.60e-02,2.32e+01,4.10e+01,
313,1.60e-02,2.48e+01,4.06e+01,
314,1.60e-02,2.48e+01,4.10e+01,
315,1.60e-02,2.56e+01,4.10e+01,
316,0.00e+00,2.72e+01,4.10e+01,
317,-8.00e-03,2.72e+01,4.10e+01,
318,-8.00e-03,2.80e+01,4.10e+01,
319,-2.40e-02,2.96e+01,4.10e+01,
320,-3.20e-02,3.04e+01,4.10e+01,
321,-3.20e-02,3.04e+01,4.10e+01,
322,-3.20e-02,3.20e+01,4.10e+01,
323,-4.80e-02,3.20e+01,4.10e+01,
324,-4.80e-02,3.20e+01,4.10e+01,
325,-4.80e-02,3.20e+01,4.10e+01,
326,-4.80e-02,3.20e+01,4.10e+01,
327,-4.80e-02,3.04e+01,4.10e+01,
328,-4.80e-02,3.04e+01,4.10e+01,
329,-3.20e-02,2.96e+01,4.10e+01,
330,-3.20e-02,2.80e+01,4.10e+01,
331,-2.40e-02,2.72e+01,4.10e+01,
332,-2.40e-02,2.72e+01,4.10e+01,
333,-8.00e-03,2.56e+01,4.10e+01,
334,0.00e+00,2.56e+01,4.10e+01,
335,0.00e+00,2.48e+01,4.06e+01,
336,0.00e+00,2.48e+01,4.10e+01,
337,0.00e+00,2.48e+01,4.10e+01,
338,1.60e-02,2.48e+01,4.10e+01,
339,1.60e-02,2.48e+01,4.10e+01,
340,1.60e-02,2.48e+01,4.10e+01,
341,0.00e+00,2.48e+01,4.10e+01,
342,0.00e+00,2.56e+01,4.10e+01,
343,0.00e+00,2.72e+01,4.10e+01,
344,-8.00e-03,2.72e+01,4.10e+01,
345,-8.00e-03,2.80e+01,4.10e+01,
346,-2.40e-02,2.96e+01,4.10e+01,
347,-2.40e-02,2.96e+01,4.10e+01,
348,-3.20e-02,3.04e+01,4.10e+01,
349,-3.20e-02,3.04e+01,4.10e+01,
350,-3.20e-02,3.04e+01,4.10e+01,
351,-4.80e-02,3.20e+01,4.10e+01,
352,-4.80e-02,3.20e+01,4.10e+01,
353,-4.80e-02,3.04e+01,4.10e+01,
354,-4.80e-02,3.04e+01,4.10e+01,
355,-3.20e-02,2.96e+01,4.10e+01,
356,-3.20e-02,2.96e+01,4.10e+01,
357,-3.20e-02,2.80e+01,4.06e+01,
358,-2.40e-02,2.80e+01,4.10e+01,
359,-2.40e-02,2.72e+01,4.10e+01,
360,-8.00e-03,2.72e+01,4.06e+01,
361,-8.00e-03,2.56e+01,4.10e+01,
362,-8.00e-03,2.56e+01,4.10e+01,
363,0.00e+00,2.48e+01,4.06e+01,
364,0.00e+00,2.48e+01,4.10e+01,
365,0.00e+00,2.48e+01,4.06e+01,
366,0.00e+00,2.48e+01,4.06e+01,
367,0.00e+00,2.56e+01,4.10e+01,
368,0.00e+00,2.56e+01,4.10e+01,
369,0.00e+00,2.56e+01,4.06e+01,
370,0.00e+00,2.72e+01,4.10e+01,
371,-8.00e-03,2.72e+01,4.10e+01,
372,-8.00e-03,2.80e+01,4.06e+01,
373,-2.40e-02,2.80e+01,4.06e+01,
374,-2.40e-02,2.96e+01,4.10e+01,
375,-2.40e-02,2.96e+01,4.10e+01,
376,-3.20e-02,3.04e+01,4.10e+01,
377,-3.20e-02,3.04e+01,4.10e+01,
378,-3.20e-02,3.04e+01,4.10e+01,
379,-3.20e-02,3.04e+01,4.10e+01,
380,-3.20e-02,3.04e+01,4.10e+01,
381,-3.20e-02,3.04e+01,4.10e+01,
382,-3.20e-02,2.96e+01,4.10e+01,
383,-3.20e-02,2.96e+01,4.06e+01,
384,-3.20e-02,2.80e+01,4.06e+01,
385,-2.40e-02,2.80e+01,4.10e+01,
386,-2.40e-02,2.72e+01,4.10e+01,
387,-8.00e-03,2.72e+01,4.10e+01,
388,-8.00e-03,2.72e+01,4.10e+01,
389,-8.00e-03,2.56e+01,4.10e+01,
390,0.00e+00,2.56e+01,4.06e+01,
391,0.00e+00,2.56e+01,4.10e+01,
392,0.00e+00,2.56e+01,4.06e+01,
393,0.00e+00,2.56e+01,4.06e+01,
394,0.00e+00,2.56e+01,4.06e+01,
395,0.00e+00,2.56e+01,4.10e+01,
396,0.00e+00,2.72e+01,4.10e+01,
397,-8.00e-03,2.72e+01,4.10e+01,
398,-8.00e-03,2.72e+01,4.10e+01,
399,-8.00e-03,2.80e+01,4.10e+01,
400,-8.00e-03,2.80e+01,4.10e+01,
401,-2.40e-02,2.96e+01,4.06e+01,
402,-2.40e-02,2.96e+01,4.10e+01,
403,-2.40e-02,2.96e+01,4.10e+01,
404,-3.20e-02,3.04e+01,4.06e+01,
405,-3.20e-02,3.04e+01,4.10e+01,
406,-3.20e-02,3.04e+01,4.10e+01,
407,-3.20e-02,2.96e+01,4.10e+01,
408,-3.20e-02,2.96e+01,4.10e+01,
409,-3.20e-02,2.96e+01,4.10e+01,
410,-2.40e-02,2.96e+01,4.10e+01,
411,-2.40e-02,2.80e+01,4.10e+01,
412,-2.40e-02,2.80e+01,4.10e+01,
413,-2.40e-02,2.72e+01,4.10e+01,
414,-8.00e-03,2.72e+01,4.10e+01,
415,-8.00e-03,2.72e+01,4.06e+01,
416,-8.00e-03,2.72e+01,4.10e+01,
417,-8.00e-03,2.56e+01,4.10e+01,
418,0.00e+00,2.56e+01,4.10e+01,
419,0.00e+00,2.56e+01,4.06e+01,
420,0.00e+00,2.56e+01,4.10e+01,
421,0.00e+00,2.56e+01,4.06e+01,
422,0.00e+00,2.56e+01,4.06e+01,
423,0.00e+00,2.72e+01,4.06e+01,
424,0.00e+00,2.72e+01,4.10e+01,
425,-8.00e-03,2.72e+01,4.10e+01,
426,-8.00e-03,2.80e+01,4.10e+01,
427,-8.00e-03,2.80e+01,4.06e+01,
428,-2.40e-02,2.80e+01,4.06e+01,
429,-2.40e-02,2.96e+01,4.06e+01,
430,-2.40e-02,2.96e+01,4.10e+01,
431,-2.40e-02,2.96e+01,4.10e+01,
432,-2.40e-02,2.96e+01,4.06e+01,
433,-3.20e-02,2.96e+01,4.10e+01,
434,-2.40e-02,2.96e+01,4.10e+01,
435,-2.40e-02,2.96e+01,4.10e+01,
436,-2.40e-02,2.96e+01,4.06e+01,
437,-2.40e-02,2.96e+01,4.06e+01,
438,-2.40e-02,2.80e+01,4.06e+01,
439,-2.40e-02,2.80e+01,4.06e+01,
440,-2.40e-02,2.80e+01,4.06e+01,
441,-2.40e-02,2.72e+01,4.06e+01,
442,-8.00e-03,2.72e+01,4.06e+01,
443,-8.00e-03,2.72e+01,4.06e+01,
444,-8.00e-03,2.72e+01,4.06e+01,
445,-8.00e-03,2.56e+01,4.06e+01,
446,-8.00e-03,2.56e+01,4.06e+01,
447,-8.00e-03,2.56e+01,4.06e+01,
448,-8.00e-03,2.72e+01,4.06e+01,
449,-8.00e-03,2.72e+01,4.06e+01,
450,0.00e+00,2.72e+01,4.06e+01,
451,-8.00e-03,2.72e+01,4.06e+01,
452,-8.00e-03,2.72e+01,4.06e+01,
453,-8.00e-03,2.80e+01,4.06e+01,
454,-8.00e-03,2.80e+01,4.06e+01,
455,-2.40e-02,2.80e+01,4.06e+01,
456,-2.40e-02,2.80e+01,4.06e+01,
457,-2.40e-02,2.96e+01,4.06e+01,
458,-2.40e-02,2.96e+01,4.06e+01,
459,-2.40e-02,2.96e+01,4.10e+01,
460,-2.40e-02,2.96e+01,4.06e+01,
461,-2.40e-02,2.96e+01,4.06e+01,
462,-2.40e-02,2.96e+01,4.06e+01,
463,-2.40e-02,2.96e+01,4.10e+01,
464,-2.40e-02,2.80e+01,4.10e+01,
465,-2.40e-02,2.80e+01,4.06e+01,
466,-2.40e-02,2.80e+01,4.06e+01,
467,-2.40e-02,2.80e+01,4.06e+01,
468,-2.40e-02,2.72e+01,4.06e+01,
469,-8.00e-03,2.72e+01,4.06e+01,
470,-8.00e-03,2.72e+01,4.06e+01,
471,-8.00e-03,2.72e+01,4.06e+01,
472,-8.00e-03,2.72e+01,4.06e+01,
473,-8.00e-03,2.72e+01,4.10e+01,
474,-8.00e-03,2.72e+01,4.06e+01,
475,-8.00e-03,2.72e+01,4.06e+01,
476,-8.00e-03,2.72e+01,4.06e+01,
477,-8.00e-03,2.72e+01,4.06e+01,
478,-8.00e-03,2.72e+01,4.06e+01,
479,-8.00e-03,2.72e+01,4.06e+01,
480,-8.00e-03,2.80e+01,4.06e+01,
481,-8.00e-03,2.80e+01,4.06e+01,
482,-8.00e-03,2.80e+01,4.06e+01,
483,-2.40e-02,2.80e+01,4.06e+01,
484,-2.40e-02,2.80e+01,4.06e+01,
485,-2.40e-02,2.96e+01,4.06e+01,
486,-2.40e-02,2.96e+01,4.06e+01,
487,-2.40e-02,2.96e+01,4.06e+01,
488,-2.40e-02,2.96e+01,4.06e+01,
489,-2.40e-02,2.96e+01,4.06e+01,
490,-2.40e-02,2.96e+01,4.10e+01,
491,-2.40e-02,2.80e+01,4.06e+01,
492,-2.40e-02,2.80e+01,4.06e+01,
493,-2.40e-02,2.80e+01,4.06e+01,
494,-2.40e-02,2.80e+01,4.06e+01,
495,-8.00e-03,2.72e+01,4.06e+01,
496,-8.00e-03,2.72e+01,4.06e+01,
497,-8.00e-03,2.72e+01,4.06e+01,
498,-8.00e-03,2.72e+01,4.06e+01,
499,-8.00e-03,2.72e+01,4.06e+01,
500,-8.00e-03,2.72e+01,4.06e+01,
501,-8.00e-03,2.72e+01,4.06e+01,
502,-8.00e-03,2.72e+01,4.06e+01,
503,-8.00e-03,2.72e+01,4.06e+01,
504,-8.00e-03,2.72e+01,4.06e+01,
505,-8.00e-03,2.72e+01,4.06e+01,
506,-8.00e-03,2.72e+01,4.06e+01,
507,-8.00e-03,2.72e+01,4.06e+01,
508,-8.00e-03,2.80e+01,4.06e+01,
509,-2.40e-02,2.80e+01,4.06e+01,
510,-2.40e-02,2.80e+01,4.06e+01,
511,-2.40e-02,2.80e+01,4.06e+01,
512,-2.40e-02,2.80e+01,4.06e+01,
513,-2.40e-02,2.80e+01,4.06e+01,
514,-2.40e-02,2.96e+01,4.06e+01,
515,-2.40e-02,2.80e+01,4.06e+01,
516,-2.40e-02,2.80e+01,4.06e+01,
517,-2.40e-02,2.80e+01,4.06e+01,
518,-2.40e-02,2.80e+01,4.06e+01,
519,-2.40e-02,2.80e+01,4.06e+01,
520,-2.40e-02,2.80e+01,4.06e+01,
521,-2.40e-02,2.80e+01,4.06e+01,
522,-2.40e-02,2.80e+01,4.06e+01,
523,-8.00e-03,2.72e+01,4.06e+01,
524,-8.00e-03,2.72e+01,4.06e+01,
525,-8.00e-03,2.72e+01,4.06e+01,
526,-8.00e-03,2.72e+01,4.06e+01,
527,-8.00e-03,2.72e+01,4.06e+01,
528,-8.00e-03,2.72e+01,4.06e+01,
529,-8.00e-03,2.72e+01,4.06e+01,
530,-8.00e-03,2.72e+01,4.06e+01,
531,-8.00e-03,2.72e+01,4.06e+01,
532,-8.00e-03,2.72e+01,4.06e+01,
533,-8.00e-03,2.72e+01,4.06e+01,
534,-8.00e-03,2.80e+01,4.06e+01,
535,-8.00e-03,2.80e+01,4.06e+01,
536,-8.00e-03,2.80e+01,4.06e+01,
537,-2.40e-02,2.80e+01,4.06e+01,
538,-2.40e-02,2.80e+01,4.06e+01,
539,-2.40e-02,2.80e+01,4.06e+01,
540,-2.40e-02,2.80e+01,4.06e+01,
541,-2.40e-02,2.80e+01,4.06e+01,
542,-2.40e-02,2.80e+01,4.06e+01,
543,-2.40e-02,2.80e+01,4.06e+01,
544,-2.40e-02,2.80e+01,4.06e+01,
545,-2.40e-02,2.80e+01,4.06e+01,
546,-2.40e-02,2.80e+01,4.06e+01,
547,-2.40e-02,2.80e+01,4.06e+01,
548,-8.00e-03,2.80e+01,4.06e+01,
549,-2.40e-02,2.80e+01,4.06e+01,
550,-8.00e-03,2.80e+01,4.06e+01,
551,-8.00e-03,2.72e+01,4.06e+01,
552,-8.00e-03,2.72e+01,4.06e+01,
553,-8.00e-03,2.72e+01,4.06e+01,
554,-8.00e-03,2.72e+01,4.06e+01,
555,-8.00e-03,2.72e+01,4.06e+01,
556,-8.00e-03,2.72e+01,4.06e+01,
557,-8.00e-03,2.72e+01,4.06e+01,
558,-8.00e-03,2.72e+01,4.06e+01,
559,-8.00e-03,2.72e+01,4.06e+01,
560,-8.00e-03,2.72e+01,4.06e+01,
561,-8.00e-03,2.80e+01,4.06e+01,
562,-8.00e-03,2.80e+01,4.06e+01,
563,-8.00e-03,2.80e+01,4.06e+01,
564,-8.00e-03,2.80e+01,4.06e+01,
565,-2.40e-02,2.80e+01,4.06e+01,
566,-2.40e-02,2.80e+01,4.06e+01,
567,-2.40e-02,2.80e+01,4.06e+01,
568,-2.40e-02,2.80e+01,4.06e+01,
569,-2.40e-02,2.80e+01,4.06e+01,
570,-2.40e-02,2.80e+01,4.06e+01,
571,-2.40e-02,2.80e+01,4.06e+01,
572,-2.40e-02,2.80e+01,4.06e+01,
573,-2.40e-02,2.80e+01,4.06e+01,
574,-8.00e-03,2.80e+01,4.06e+01,
575,-2.40e-02,2.80e+01,4.06e+01,
576,-8.00e-03,2.80e+01,4.06e+01,
577,-8.00e-03,2.80e+01,4.06e+01,
578,-8.00e-03,2.80e+01,4.06e+01,
579,-8.00e-03,2.72e+01,4.06e+01,
580,-8.00e-03,2.72e+01,4.06e+01,
581,-8.00e-03,2.72e+01,4.06e+01,
582,-8.00e-03,2.72e+01,4.06e+01,
583,-8.00e-03,2.72e+01,4.06e+01,
584,-8.00e-03,2.72e+01,4.06e+01,
585,-8.00e-03,2.72e+01,4.06e+01,
586,-8.00e-03,2.72e+01,4.06e+01,
587,-8.00e-03,2.72e+01,4.06e+01,
588,-8.00e-03,2.80e+01,4.06e+01,
589,-8.00e-03,2.80e+01,4.06e+01,
590,-8.00e-03,2.80e+01,4.06e+01,
591,-8.00e-03,2.80e+01,4.06e+01,
592,-8.00e-03,2.80e+01,4.06e+01,
593,-2.40e-02,2.80e+01,4.06e+01,
594,-2.40e-02,2.80e+01,4.06e+01,
595,-2.40e-02,2.80e+01,4.06e+01,
596,-2.40e-02,2.80e+01,4.06e+01,
597,-2.40e-02,2.80e+01,4.06e+01,
598,-8.00e-03,2.80e+01,4.06e+01,
599,-2.40e-02,2.80e+01,4.06e+01,
600,-2.40e-02,2.80e+01,4.06e+01,
601,-2.40e-02,2.80e+01,4.06e+01,
602,-8.00e-03,2.80e+01,4.06e+01,
603,-8.00e-03,2.80e+01,4.06e+01,
604,-8.00e-03,2.80e+01,4.06e+01,
605,-8.00e-03,2.80e+01,4.06e+01,
606,-8.00e-03,2.72e+01,4.06e+01,
607,-8.00e-03,2.72e+01,4.02e+01,
608,-8.00e-03,2.72e+01,4.02e+01,
609,-8.00e-03,2.72e+01,4.06e+01,
610,-8.00e-03,2.72e+01,4.06e+01,
611,-8.00e-03,2.72e+01,4.06e+01,
