assignments/07-lab/data/clamp_10.csv

X,CH1,CH2,CH3,Start,Increment,
Sequence,Volt,Volt,Volt,-3.599995e-07,4.000000e-09
0,3.04e-01,-1.06e-04,4.40e+01,
1,3.12e-01,-1.06e-04,4.38e+01,
2,3.12e-01,-1.06e-04,4.40e+01,
3,3.12e-01,-1.60e+00,4.40e+01,
4,3.12e-01,-1.06e-04,4.40e+01,
5,3.12e-01,-1.06e-04,4.40e+01,
6,3.12e-01,-1.06e-04,4.40e+01,
7,3.12e-01,-1.60e+00,4.38e+01,
8,3.12e-01,-1.06e-04,4.38e+01,
9,3.12e-01,-1.06e-04,4.38e+01,
10,3.12e-01,-1.06e-04,4.40e+01,
11,3.12e-01,-1.60e+00,4.40e+01,
12,3.12e-01,-1.06e-04,4.40e+01,
13,3.12e-01,-1.06e-04,4.40e+01,
14,3.12e-01,-1.06e-04,4.40e+01,
15,3.12e-01,-1.06e-04,4.40e+01,
16,3.28e-01,-1.06e-04,4.40e+01,
17,3.28e-01,-1.60e+00,4.40e+01,
18,3.12e-01,-1.06e-04,4.40e+01,
19,3.28e-01,-1.06e-04,4.38e+01,
20,3.28e-01,-1.06e-04,4.40e+01,
21,3.28e-01,-1.06e-04,4.40e+01,
22,3.28e-01,-1.06e-04,4.40e+01,
23,3.28e-01,-1.06e-04,4.38e+01,
24,3.28e-01,-1.06e-04,4.40e+01,
25,3.28e-01,-1.06e-04,4.40e+01,
26,3.28e-01,-1.06e-04,4.40e+01,
27,3.28e-01,-1.06e-04,4.40e+01,
28,3.28e-01,-1.06e-04,4.40e+01,
29,3.28e-01,-1.06e-04,4.38e+01,
30,3.28e-01,-1.06e-04,4.38e+01,
31,3.28e-01,-1.06e-04,4.38e+01,
32,3.28e-01,-1.06e-04,4.40e+01,
33,3.28e-01,-1.06e-04,4.40e+01,
34,3.28e-01,-1.06e-04,4.40e+01,
35,3.28e-01,-1.06e-04,4.40e+01,
36,3.28e-01,-1.06e-04,4.40e+01,
37,3.36e-01,-1.06e-04,4.40e+01,
38,3.28e-01,-1.06e-04,4.40e+01,
39,3.36e-01,-1.06e-04,4.40e+01,
40,3.28e-01,-1.06e-04,4.38e+01,
41,3.28e-01,-1.06e-04,4.38e+01,
42,3.28e-01,-1.06e-04,4.38e+01,
43,3.28e-01,-1.06e-04,4.38e+01,
44,3.36e-01,-1.06e-04,4.38e+01,
45,3.36e-01,-1.06e-04,4.38e+01,
46,3.36e-01,-1.06e-04,4.38e+01,
47,3.36e-01,-1.06e-04,4.38e+01,
48,3.36e-01,-1.06e-04,4.38e+01,
49,3.28e-01,-1.06e-04,4.40e+01,
50,3.28e-01,-1.06e-04,4.38e+01,
51,3.28e-01,-1.06e-04,4.38e+01,
52,3.28e-01,-1.06e-04,4.40e+01,
53,3.36e-01,-1.06e-04,4.38e+01,
54,3.36e-01,8.00e-01,4.38e+01,
55,3.36e-01,8.00e-01,4.40e+01,
56,3.36e-01,8.00e-01,4.38e+01,
57,3.28e-01,8.00e-01,4.40e+01,
58,3.28e-01,8.00e-01,4.38e+01,
59,3.28e-01,8.00e-01,4.38e+01,
60,3.36e-01,2.40e+00,4.40e+01,
61,3.36e-01,2.40e+00,4.38e+01,
62,3.28e-01,2.40e+00,4.38e+01,
63,3.36e-01,2.40e+00,4.38e+01,
64,3.28e-01,2.40e+00,4.40e+01,
65,3.36e-01,3.20e+00,4.38e+01,
66,3.28e-01,3.20e+00,4.38e+01,
67,3.28e-01,3.20e+00,4.38e+01,
68,3.36e-01,3.20e+00,4.38e+01,
69,3.36e-01,4.80e+00,4.40e+01,
70,3.28e-01,4.80e+00,4.38e+01,
71,3.36e-01,4.80e+00,4.38e+01,
72,3.28e-01,6.40e+00,4.40e+01,
73,3.28e-01,6.40e+00,4.40e+01,
74,3.28e-01,7.20e+00,4.38e+01,
75,3.12e-01,8.80e+00,4.40e+01,
76,3.12e-01,9.60e+00,4.40e+01,
77,3.12e-01,1.12e+01,4.40e+01,
78,3.04e-01,1.36e+01,4.38e+01,
79,2.88e-01,1.68e+01,4.40e+01,
80,2.64e-01,2.24e+01,4.40e+01,
81,2.56e-01,2.80e+01,4.40e+01,
82,2.16e-01,3.68e+01,4.40e+01,
83,1.60e-01,4.40e+01,4.44e+01,
84,-3.84e-01,5.04e+01,4.78e+01,
85,-8.96e-01,5.20e+01,5.02e+01,
86,-9.92e-01,5.20e+01,4.96e+01,
87,-9.12e-01,5.20e+01,4.90e+01,
88,-7.68e-01,5.04e+01,4.90e+01,
89,-5.84e-01,4.88e+01,4.88e+01,
90,-3.60e-01,4.88e+01,4.78e+01,
91,-1.28e-01,4.80e+01,4.74e+01,
92,6.40e-02,4.64e+01,4.68e+01,
93,1.12e-01,4.80e+01,4.72e+01,
94,-2.40e-02,4.88e+01,4.88e+01,
95,-1.68e-01,5.04e+01,5.00e+01,
96,-1.92e-01,5.04e+01,5.02e+01,
97,-9.60e-02,4.88e+01,5.00e+01,
98,4.80e-02,4.88e+01,4.94e+01,
99,7.20e-02,4.88e+01,5.00e+01,
100,-2.40e-02,5.04e+01,5.08e+01,
101,-1.44e-01,5.20e+01,5.18e+01,
102,-1.52e-01,5.20e+01,5.18e+01,
103,-7.20e-02,5.20e+01,5.18e+01,
104,4.00e-02,5.20e+01,5.16e+01,
105,4.00e-02,5.20e+01,5.18e+01,
106,-4.80e-02,5.28e+01,5.28e+01,
107,-1.20e-01,5.28e+01,5.30e+01,
108,-1.20e-01,5.28e+01,5.34e+01,
109,-3.20e-02,5.28e+01,5.30e+01,
110,2.40e-02,5.28e+01,5.28e+01,
111,1.60e-02,5.28e+01,5.34e+01,
112,-5.60e-02,5.44e+01,5.40e+01,
113,-1.04e-01,5.44e+01,5.44e+01,
114,-8.00e-02,5.44e+01,5.40e+01,
115,-2.40e-02,5.28e+01,5.36e+01,
116,1.60e-02,5.28e+01,5.34e+01,
117,-8.00e-03,5.28e+01,5.36e+01,
118,-5.60e-02,5.44e+01,5.40e+01,
119,-8.00e-02,5.44e+01,5.44e+01,
120,-5.60e-02,5.44e+01,5.40e+01,
121,-2.40e-02,5.28e+01,5.36e+01,
122,0.00e+00,5.28e+01,5.36e+01,
123,-2.40e-02,5.28e+01,5.36e+01,
124,-5.60e-02,5.28e+01,5.36e+01,
125,-7.20e-02,5.28e+01,5.36e+01,
126,-4.80e-02,5.28e+01,5.34e+01,
127,-2.40e-02,5.28e+01,5.30e+01,
128,-8.00e-03,5.28e+01,5.30e+01,
129,-3.20e-02,5.28e+01,5.30e+01,
130,-5.60e-02,5.28e+01,5.28e+01,
131,-5.60e-02,5.20e+01,5.28e+01,
132,-7.20e-02,5.20e+01,5.28e+01,
133,-7.04e-01,4.56e+01,5.64e+01,
134,-4.16e-01,3.92e+01,5.40e+01,
135,6.40e-02,3.04e+01,5.08e+01,
136,-2.16e-01,2.24e+01,5.36e+01,
137,1.60e-02,1.68e+01,5.28e+01,
138,0.00e+00,1.20e+01,5.24e+01,
139,1.12e-01,9.60e+00,5.18e+01,
140,9.60e-02,7.20e+00,5.30e+01,
141,1.44e-01,6.40e+00,5.16e+01,
142,1.84e-01,6.40e+00,5.24e+01,
143,1.60e-01,6.40e+00,5.28e+01,
144,2.16e-01,6.40e+00,5.18e+01,
145,1.92e-01,7.20e+00,5.24e+01,
146,1.84e-01,9.60e+00,5.28e+01,
147,1.92e-01,1.20e+01,5.22e+01,
148,1.44e-01,1.60e+01,5.28e+01,
149,1.12e-01,2.08e+01,5.30e+01,
150,6.40e-02,2.80e+01,5.24e+01,
151,-2.40e-02,3.68e+01,5.34e+01,
152,-8.00e-02,4.56e+01,5.36e+01,
153,-1.68e-01,5.52e+01,5.40e+01,
154,-6.72e-01,5.92e+01,5.70e+01,
155,-7.04e-01,5.68e+01,5.68e+01,
156,-4.80e-02,5.20e+01,5.22e+01,
157,5.28e-01,4.88e+01,5.00e+01,
158,4.80e-01,5.04e+01,5.12e+01,
159,-8.00e-02,5.44e+01,5.46e+01,
160,-5.28e-01,5.68e+01,5.64e+01,
161,-4.32e-01,5.44e+01,5.52e+01,
162,4.80e-02,5.20e+01,5.18e+01,
163,3.76e-01,4.88e+01,5.06e+01,
164,-9.60e-01,4.16e+01,5.96e+01,
165,2.88e-01,4.32e+01,5.18e+01,
166,-4.56e-01,3.20e+01,5.44e+01,
167,1.20e-01,2.80e+01,5.22e+01,
168,0.00e+00,2.32e+01,5.56e+01,
169,-5.60e-02,2.00e+01,5.18e+01,
170,1.12e-01,1.68e+01,5.36e+01,
171,6.40e-02,1.60e+01,5.46e+01,
172,1.36e-01,1.44e+01,5.16e+01,
173,9.60e-02,1.36e+01,5.40e+01,
174,1.20e-01,1.44e+01,5.34e+01,
175,1.44e-01,1.44e+01,5.28e+01,
176,9.60e-02,1.68e+01,5.34e+01,
177,9.60e-02,2.00e+01,5.36e+01,
178,9.60e-02,2.24e+01,5.28e+01,
179,4.80e-02,2.72e+01,5.40e+01,
180,1.60e-02,3.20e+01,5.36e+01,
181,-8.00e-03,3.68e+01,5.34e+01,
182,-7.20e-02,4.16e+01,5.36e+01,
183,-9.60e-02,4.64e+01,5.36e+01,
184,-1.28e-01,5.20e+01,5.34e+01,
185,-1.76e-01,5.44e+01,5.44e+01,
186,-2.72e-01,5.44e+01,5.44e+01,
187,-1.76e-01,5.28e+01,5.34e+01,
188,6.40e-02,5.20e+01,5.24e+01,
189,1.84e-01,5.04e+01,5.16e+01,
190,-1.02e+00,4.40e+01,5.80e+01,
191,3.28e-01,4.40e+01,5.02e+01,
192,-3.84e-01,3.84e+01,5.52e+01,
193,-7.20e-02,3.28e+01,5.16e+01,
194,4.00e-02,2.96e+01,5.46e+01,
195,-2.40e-02,2.56e+01,5.18e+01,
196,0.00e+00,2.24e+01,5.36e+01,
197,6.40e-02,2.00e+01,5.30e+01,
198,1.20e-01,1.84e+01,5.22e+01,
199,4.00e-02,1.68e+01,5.30e+01,
200,9.60e-02,1.68e+01,5.30e+01,
201,1.20e-01,1.84e+01,5.22e+01,
202,7.20e-02,2.00e+01,5.30e+01,
203,9.60e-02,2.08e+01,5.28e+01,
204,7.20e-02,2.32e+01,5.24e+01,
205,4.80e-02,2.56e+01,5.34e+01,
206,2.40e-02,2.96e+01,5.28e+01,
207,0.00e+00,3.28e+01,5.28e+01,
208,-4.80e-02,3.84e+01,5.30e+01,
209,-5.60e-02,4.16e+01,5.30e+01,
210,-8.00e-02,4.56e+01,5.30e+01,
211,-1.20e-01,4.80e+01,5.36e+01,
212,-1.20e-01,5.04e+01,5.30e+01,
213,-1.28e-01,5.04e+01,5.34e+01,
214,-1.28e-01,4.88e+01,5.34e+01,
215,-1.44e-01,4.80e+01,5.30e+01,
216,-1.28e-01,4.56e+01,5.34e+01,
217,-1.20e-01,4.16e+01,5.30e+01,
218,-9.60e-02,3.84e+01,5.30e+01,
219,-7.20e-02,3.44e+01,5.30e+01,
220,-4.80e-02,3.04e+01,5.30e+01,
221,-8.00e-03,2.72e+01,5.28e+01,
222,1.60e-02,2.48e+01,5.28e+01,
223,2.40e-02,2.24e+01,5.28e+01,
224,4.80e-02,2.08e+01,5.28e+01,
225,6.40e-02,2.08e+01,5.28e+01,
226,7.20e-02,2.08e+01,5.28e+01,
227,7.20e-02,2.08e+01,5.28e+01,
228,7.20e-02,2.08e+01,5.28e+01,
229,7.20e-02,2.32e+01,5.30e+01,
230,6.40e-02,2.48e+01,5.28e+01,
231,4.00e-02,2.72e+01,5.30e+01,
232,2.40e-02,3.04e+01,5.30e+01,
233,0.00e+00,3.28e+01,5.30e+01,
234,-2.40e-02,3.68e+01,5.30e+01,
235,-4.80e-02,3.92e+01,5.30e+01,
236,-7.20e-02,4.32e+01,5.34e+01,
237,-9.60e-02,4.56e+01,5.34e+01,
238,-1.04e-01,4.64e+01,5.34e+01,
239,-1.20e-01,4.64e+01,5.34e+01,
240,-1.20e-01,4.64e+01,5.34e+01,
241,-1.20e-01,4.56e+01,5.34e+01,
242,-1.04e-01,4.32e+01,5.34e+01,
243,-9.60e-02,4.08e+01,5.34e+01,
244,-8.00e-02,3.68e+01,5.30e+01,
245,-5.60e-02,3.44e+01,5.34e+01,
246,-3.20e-02,3.20e+01,5.30e+01,
247,-2.40e-02,2.80e+01,5.34e+01,
248,0.00e+00,2.72e+01,5.30e+01,
249,2.40e-02,2.48e+01,5.30e+01,
250,4.00e-02,2.32e+01,5.28e+01,
251,4.80e-02,2.24e+01,5.30e+01,
252,6.40e-02,2.24e+01,5.30e+01,
253,6.40e-02,2.24e+01,5.30e+01,
254,6.40e-02,2.32e+01,5.30e+01,
255,4.80e-02,2.48e+01,5.30e+01,
256,4.80e-02,2.56e+01,5.30e+01,
257,2.40e-02,2.80e+01,5.30e+01,
258,1.60e-02,3.04e+01,5.30e+01,
259,0.00e+00,3.28e+01,5.34e+01,
260,-2.40e-02,3.60e+01,5.34e+01,
261,-4.80e-02,3.84e+01,5.34e+01,
262,-5.60e-02,4.08e+01,5.34e+01,
263,-8.00e-02,4.32e+01,5.34e+01,
264,-8.00e-02,4.40e+01,5.34e+01,
265,-9.60e-02,4.40e+01,5.34e+01,
266,-9.60e-02,4.40e+01,5.34e+01,
267,-9.60e-02,4.32e+01,5.34e+01,
268,-8.00e-02,4.16e+01,5.30e+01,
269,-8.00e-02,3.92e+01,5.30e+01,
270,-7.20e-02,3.68e+01,5.30e+01,
271,-4.80e-02,3.44e+01,5.30e+01,
272,-3.20e-02,3.20e+01,5.30e+01,
273,-2.40e-02,2.96e+01,5.30e+01,
274,0.00e+00,2.80e+01,5.28e+01,
275,1.60e-02,2.56e+01,5.28e+01,
276,2.40e-02,2.48e+01,5.28e+01,
277,4.00e-02,2.48e+01,5.28e+01,
278,4.80e-02,2.48e+01,5.28e+01,
279,4.80e-02,2.48e+01,5.28e+01,
280,4.80e-02,2.48e+01,5.28e+01,
281,4.00e-02,2.56e+01,5.28e+01,
282,4.00e-02,2.72e+01,5.28e+01,
283,2.40e-02,2.96e+01,5.28e+01,
284,1.60e-02,3.04e+01,5.28e+01,
285,-8.00e-03,3.28e+01,5.30e+01,
286,-2.40e-02,3.60e+01,5.30e+01,
287,-3.20e-02,3.68e+01,5.30e+01,
288,-4.80e-02,3.92e+01,5.30e+01,
289,-5.60e-02,4.08e+01,5.30e+01,
290,-7.20e-02,4.16e+01,5.30e+01,
291,-8.00e-02,4.16e+01,5.30e+01,
292,-8.00e-02,4.16e+01,5.30e+01,
293,-8.00e-02,4.08e+01,5.30e+01,
294,-7.20e-02,3.92e+01,5.30e+01,
295,-7.20e-02,3.84e+01,5.30e+01,
296,-5.60e-02,3.60e+01,5.30e+01,
297,-4.80e-02,3.44e+01,5.30e+01,
298,-3.20e-02,3.20e+01,5.28e+01,
299,-2.40e-02,3.04e+01,5.28e+01,
300,0.00e+00,2.80e+01,5.28e+01,
301,1.60e-02,2.72e+01,5.28e+01,
302,1.60e-02,2.72e+01,5.28e+01,
303,2.40e-02,2.56e+01,5.28e+01,
304,4.00e-02,2.56e+01,5.28e+01,
305,4.00e-02,2.56e+01,5.28e+01,
306,4.00e-02,2.72e+01,5.28e+01,
307,2.40e-02,2.72e+01,5.28e+01,
308,2.40e-02,2.80e+01,5.28e+01,
309,1.60e-02,2.96e+01,5.28e+01,
310,0.00e+00,3.20e+01,5.30e+01,
311,-8.00e-03,3.28e+01,5.30e+01,
312,-2.40e-02,3.60e+01,5.30e+01,
313,-3.20e-02,3.68e+01,5.30e+01,
314,-4.80e-02,3.84e+01,5.30e+01,
315,-5.60e-02,3.92e+01,5.30e+01,
316,-5.60e-02,3.92e+01,5.30e+01,
317,-7.20e-02,4.08e+01,5.30e+01,
318,-7.20e-02,4.08e+01,5.30e+01,
319,-7.20e-02,3.92e+01,5.30e+01,
320,-7.20e-02,3.84e+01,5.30e+01,
321,-5.60e-02,3.68e+01,5.30e+01,
322,-4.80e-02,3.60e+01,5.28e+01,
323,-4.80e-02,3.44e+01,5.30e+01,
324,-2.40e-02,3.20e+01,5.30e+01,
325,-2.40e-02,3.04e+01,5.30e+01,
326,-8.00e-03,2.96e+01,5.28e+01,
327,0.00e+00,2.80e+01,5.28e+01,
328,1.60e-02,2.72e+01,5.28e+01,
329,1.60e-02,2.72e+01,5.28e+01,
330,2.40e-02,2.72e+01,5.28e+01,
331,2.40e-02,2.72e+01,5.28e+01,
332,2.40e-02,2.72e+01,5.28e+01,
333,2.40e-02,2.80e+01,5.30e+01,
334,1.60e-02,2.96e+01,5.28e+01,
335,0.00e+00,3.04e+01,5.28e+01,
336,0.00e+00,3.20e+01,5.30e+01,
337,-8.00e-03,3.28e+01,5.30e+01,
338,-2.40e-02,3.44e+01,5.30e+01,
339,-3.20e-02,3.60e+01,5.30e+01,
340,-4.80e-02,3.68e+01,5.30e+01,
341,-4.80e-02,3.84e+01,5.30e+01,
342,-5.60e-02,3.84e+01,5.30e+01,
343,-5.60e-02,3.84e+01,5.30e+01,
344,-5.60e-02,3.84e+01,5.30e+01,
345,-5.60e-02,3.84e+01,5.30e+01,
346,-5.60e-02,3.68e+01,5.30e+01,
347,-4.80e-02,3.60e+01,5.30e+01,
348,-4.80e-02,3.44e+01,5.28e+01,
349,-3.20e-02,3.28e+01,5.28e+01,
350,-2.40e-02,3.20e+01,5.28e+01,
351,-2.40e-02,3.04e+01,5.28e+01,
352,-8.00e-03,3.04e+01,5.28e+01,
353,0.00e+00,2.96e+01,5.28e+01,
354,0.00e+00,2.80e+01,5.28e+01,
355,1.60e-02,2.80e+01,5.28e+01,
356,1.60e-02,2.80e+01,5.24e+01,
357,1.60e-02,2.80e+01,5.28e+01,
358,1.60e-02,2.80e+01,5.28e+01,
359,1.60e-02,2.96e+01,5.28e+01,
360,1.60e-02,3.04e+01,5.28e+01,
361,0.00e+00,3.04e+01,5.28e+01,
362,-8.00e-03,3.20e+01,5.28e+01,
363,-8.00e-03,3.28e+01,5.28e+01,
364,-2.40e-02,3.44e+01,5.28e+01,
365,-3.20e-02,3.60e+01,5.28e+01,
366,-3.20e-02,3.68e+01,5.28e+01,
367,-4.80e-02,3.68e+01,5.28e+01,
368,-4.80e-02,3.84e+01,5.28e+01,
369,-4.80e-02,3.84e+01,5.28e+01,
370,-4.80e-02,3.68e+01,5.28e+01,
371,-5.60e-02,3.68e+01,5.28e+01,
372,-4.80e-02,3.68e+01,5.28e+01,
373,-4.80e-02,3.60e+01,5.28e+01,
374,-3.20e-02,3.44e+01,5.28e+01,
375,-3.20e-02,3.28e+01,5.28e+01,
376,-2.40e-02,3.20e+01,5.28e+01,
377,-2.40e-02,3.04e+01,5.28e+01,
378,-8.00e-03,3.04e+01,5.28e+01,
379,-8.00e-03,2.96e+01,5.24e+01,
380,0.00e+00,2.96e+01,5.24e+01,
381,0.00e+00,2.96e+01,5.28e+01,
382,0.00e+00,2.96e+01,5.24e+01,
383,1.60e-02,2.96e+01,5.28e+01,
384,0.00e+00,2.96e+01,5.28e+01,
385,0.00e+00,2.96e+01,5.28e+01,
386,0.00e+00,3.04e+01,5.28e+01,
387,0.00e+00,3.20e+01,5.28e+01,
388,-8.00e-03,3.20e+01,5.28e+01,
389,-8.00e-03,3.28e+01,5.28e+01,
390,-2.40e-02,3.44e+01,5.28e+01,
391,-2.40e-02,3.60e+01,5.28e+01,
392,-3.20e-02,3.60e+01,5.28e+01,
393,-3.20e-02,3.68e+01,5.28e+01,
394,-4.80e-02,3.68e+01,5.28e+01,
395,-4.80e-02,3.68e+01,5.28e+01,
396,-4.80e-02,3.68e+01,5.28e+01,
397,-4.80e-02,3.60e+01,5.28e+01,
398,-4.80e-02,3.60e+01,5.28e+01,
399,-3.20e-02,3.44e+01,5.28e+01,
400,-3.20e-02,3.44e+01,5.28e+01,
401,-2.40e-02,3.28e+01,5.28e+01,
402,-2.40e-02,3.28e+01,5.28e+01,
403,-2.40e-02,3.20e+01,5.28e+01,
404,-8.00e-03,3.04e+01,5.28e+01,
405,-8.00e-03,3.04e+01,5.28e+01,
406,0.00e+00,2.96e+01,5.28e+01,
407,0.00e+00,2.96e+01,5.28e+01,
408,0.00e+00,2.96e+01,5.28e+01,
409,0.00e+00,2.96e+01,5.28e+01,
410,0.00e+00,3.04e+01,5.28e+01,
411,0.00e+00,3.04e+01,5.28e+01,
412,0.00e+00,3.04e+01,5.28e+01,
413,-8.00e-03,3.20e+01,5.28e+01,
414,-8.00e-03,3.28e+01,5.28e+01,
415,-8.00e-03,3.28e+01,5.28e+01,
416,-2.40e-02,3.44e+01,5.28e+01,
417,-2.40e-02,3.44e+01,5.28e+01,
418,-3.20e-02,3.60e+01,5.28e+01,
419,-3.20e-02,3.60e+01,5.28e+01,
420,-3.20e-02,3.60e+01,5.28e+01,
421,-3.20e-02,3.60e+01,5.28e+01,
422,-4.80e-02,3.60e+01,5.28e+01,
423,-3.20e-02,3.60e+01,5.28e+01,
424,-3.20e-02,3.60e+01,5.28e+01,
425,-3.20e-02,3.44e+01,5.28e+01,
426,-3.20e-02,3.44e+01,5.28e+01,
427,-2.40e-02,3.28e+01,5.24e+01,
428,-2.40e-02,3.28e+01,5.28e+01,
429,-8.00e-03,3.20e+01,5.28e+01,
430,-8.00e-03,3.20e+01,5.24e+01,
431,-8.00e-03,3.04e+01,5.24e+01,
432,0.00e+00,3.04e+01,5.24e+01,
433,0.00e+00,3.04e+01,5.28e+01,
434,0.00e+00,3.04e+01,5.24e+01,
435,0.00e+00,3.04e+01,5.24e+01,
436,0.00e+00,3.04e+01,5.24e+01,
437,0.00e+00,3.04e+01,5.24e+01,
438,0.00e+00,3.20e+01,5.24e+01,
439,-8.00e-03,3.20e+01,5.24e+01,
440,-8.00e-03,3.28e+01,5.28e+01,
441,-8.00e-03,3.28e+01,5.24e+01,
442,-2.40e-02,3.44e+01,5.24e+01,
443,-2.40e-02,3.44e+01,5.24e+01,
444,-2.40e-02,3.44e+01,5.24e+01,
445,-3.20e-02,3.60e+01,5.24e+01,
446,-3.20e-02,3.60e+01,5.24e+01,
447,-3.20e-02,3.60e+01,5.24e+01,
448,-3.20e-02,3.60e+01,5.24e+01,
449,-3.20e-02,3.60e+01,5.24e+01,
450,-3.20e-02,3.44e+01,5.24e+01,
451,-3.20e-02,3.44e+01,5.28e+01,
452,-2.40e-02,3.28e+01,5.24e+01,
453,-2.40e-02,3.28e+01,5.24e+01,
454,-2.40e-02,3.20e+01,5.24e+01,
455,-2.40e-02,3.20e+01,5.24e+01,
456,-8.00e-03,3.20e+01,5.24e+01,
457,-8.00e-03,3.04e+01,5.28e+01,
458,-8.00e-03,3.04e+01,5.24e+01,
459,-8.00e-03,3.04e+01,5.24e+01,
460,0.00e+00,3.04e+01,5.24e+01,
461,0.00e+00,3.04e+01,5.24e+01,
462,0.00e+00,3.04e+01,5.24e+01,
463,-8.00e-03,3.20e+01,5.28e+01,
464,-8.00e-03,3.20e+01,5.24e+01,
465,-8.00e-03,3.20e+01,5.24e+01,
466,-8.00e-03,3.28e+01,5.24e+01,
467,-8.00e-03,3.28e+01,5.24e+01,
468,-2.40e-02,3.28e+01,5.24e+01,
469,-2.40e-02,3.44e+01,5.28e+01,
470,-2.40e-02,3.44e+01,5.24e+01,
471,-3.20e-02,3.44e+01,5.28e+01,
472,-3.20e-02,3.44e+01,5.24e+01,
473,-3.20e-02,3.44e+01,5.28e+01,
474,-3.20e-02,3.44e+01,5.28e+01,
475,-3.20e-02,3.44e+01,5.28e+01,
476,-3.20e-02,3.44e+01,5.28e+01,
477,-2.40e-02,3.44e+01,5.24e+01,
478,-2.40e-02,3.28e+01,5.24e+01,
479,-2.40e-02,3.28e+01,5.28e+01,
480,-2.40e-02,3.28e+01,5.24e+01,
481,-2.40e-02,3.20e+01,5.24e+01,
482,-8.00e-03,3.20e+01,5.24e+01,
483,-8.00e-03,3.20e+01,5.24e+01,
484,-8.00e-03,3.20e+01,5.24e+01,
485,-8.00e-03,3.04e+01,5.24e+01,
486,-8.00e-03,3.04e+01,5.24e+01,
487,-8.00e-03,3.04e+01,5.24e+01,
488,-8.00e-03,3.20e+01,5.24e+01,
489,-8.00e-03,3.20e+01,5.24e+01,
490,-8.00e-03,3.20e+01,5.24e+01,
491,-8.00e-03,3.20e+01,5.24e+01,
492,-8.00e-03,3.28e+01,5.24e+01,
493,-8.00e-03,3.28e+01,5.24e+01,
494,-2.40e-02,3.28e+01,5.24e+01,
495,-2.40e-02,3.44e+01,5.24e+01,
496,-2.40e-02,3.44e+01,5.24e+01,
497,-2.40e-02,3.44e+01,5.24e+01,
498,-2.40e-02,3.44e+01,5.24e+01,
499,-3.20e-02,3.44e+01,5.24e+01,
500,-2.40e-02,3.44e+01,5.24e+01,
501,-3.20e-02,3.44e+01,5.24e+01,
502,-2.40e-02,3.44e+01,5.24e+01,
503,-2.40e-02,3.28e+01,5.24e+01,
504,-2.40e-02,3.28e+01,5.24e+01,
505,-2.40e-02,3.28e+01,5.24e+01,
506,-2.40e-02,3.28e+01,5.24e+01,
507,-2.40e-02,3.20e+01,5.24e+01,
508,-8.00e-03,3.20e+01,5.24e+01,
509,-8.00e-03,3.20e+01,5.24e+01,
510,-8.00e-03,3.20e+01,5.24e+01,
511,-8.00e-03,3.20e+01,5.24e+01,
512,-8.00e-03,3.20e+01,5.24e+01,
513,-8.00e-03,3.20e+01,5.24e+01,
514,-8.00e-03,3.20e+01,5.24e+01,
515,-8.00e-03,3.20e+01,5.24e+01,
516,-8.00e-03,3.20e+01,5.24e+01,
517,-8.00e-03,3.20e+01,5.24e+01,
518,-8.00e-03,3.28e+01,5.24e+01,
519,-2.40e-02,3.28e+01,5.24e+01,
520,-2.40e-02,3.28e+01,5.24e+01,
521,-2.40e-02,3.28e+01,5.24e+01,
522,-2.40e-02,3.44e+01,5.24e+01,
523,-2.40e-02,3.44e+01,5.24e+01,
524,-2.40e-02,3.44e+01,5.24e+01,
525,-2.40e-02,3.44e+01,5.24e+01,
526,-2.40e-02,3.44e+01,5.24e+01,
527,-2.40e-02,3.44e+01,5.24e+01,
528,-2.40e-02,3.44e+01,5.24e+01,
529,-2.40e-02,3.28e+01,5.24e+01,
530,-2.40e-02,3.28e+01,5.22e+01,
531,-2.40e-02,3.28e+01,5.24e+01,
532,-8.00e-03,3.28e+01,5.24e+01,
533,-8.00e-03,3.20e+01,5.24e+01,
534,-8.00e-03,3.20e+01,5.22e+01,
535,-8.00e-03,3.20e+01,5.22e+01,
536,-8.00e-03,3.20e+01,5.22e+01,
537,-8.00e-03,3.20e+01,5.24e+01,
538,-8.00e-03,3.20e+01,5.24e+01,
539,-8.00e-03,3.20e+01,5.24e+01,
540,-8.00e-03,3.20e+01,5.24e+01,
541,-8.00e-03,3.20e+01,5.24e+01,
542,-8.00e-03,3.20e+01,5.22e+01,
543,-8.00e-03,3.28e+01,5.24e+01,
544,-8.00e-03,3.28e+01,5.24e+01,
545,-8.00e-03,3.28e+01,5.24e+01,
546,-2.40e-02,3.28e+01,5.24e+01,
547,-2.40e-02,3.28e+01,5.24e+01,
548,-2.40e-02,3.44e+01,5.24e+01,
549,-2.40e-02,3.44e+01,5.24e+01,
550,-2.40e-02,3.44e+01,5.24e+01,
551,-2.40e-02,3.44e+01,5.24e+01,
552,-2.40e-02,3.44e+01,5.24e+01,
553,-2.40e-02,3.44e+01,5.24e+01,
554,-2.40e-02,3.28e+01,5.24e+01,
555,-2.40e-02,3.28e+01,5.24e+01,
556,-2.40e-02,3.28e+01,5.24e+01,
557,-2.40e-02,3.28e+01,5.24e+01,
558,-8.00e-03,3.28e+01,5.22e+01,
559,-8.00e-03,3.28e+01,5.24e+01,
560,-8.00e-03,3.20e+01,5.24e+01,
561,-8.00e-03,3.20e+01,5.24e+01,
562,-8.00e-03,3.20e+01,5.22e+01,
563,-8.00e-03,3.20e+01,5.24e+01,
564,-8.00e-03,3.20e+01,5.24e+01,
565,-8.00e-03,3.20e+01,5.24e+01,
566,-8.00e-03,3.20e+01,5.24e+01,
567,-8.00e-03,3.20e+01,5.22e+01,
568,-8.00e-03,3.28e+01,5.24e+01,
569,-8.00e-03,3.28e+01,5.24e+01,
570,-8.00e-03,3.28e+01,5.22e+01,
571,-2.40e-02,3.28e+01,5.24e+01,
572,-2.40e-02,3.28e+01,5.24e+01,
573,-2.40e-02,3.28e+01,5.24e+01,
574,-2.40e-02,3.44e+01,5.24e+01,
575,-2.40e-02,3.28e+01,5.22e+01,
576,-2.40e-02,3.44e+01,5.22e+01,
577,-2.40e-02,3.28e+01,5.24e+01,
578,-2.40e-02,3.28e+01,5.24e+01,
579,-2.40e-02,3.28e+01,5.22e+01,
580,-2.40e-02,3.28e+01,5.22e+01,
581,-2.40e-02,3.28e+01,5.24e+01,
582,-2.40e-02,3.28e+01,5.22e+01,
583,-2.40e-02,3.28e+01,5.22e+01,
584,-2.40e-02,3.28e+01,5.22e+01,
585,-8.00e-03,3.28e+01,5.22e+01,
586,-8.00e-03,3.28e+01,5.22e+01,
587,-8.00e-03,3.20e+01,5.22e+01,
588,-8.00e-03,3.20e+01,5.22e+01,
589,-8.00e-03,3.20e+01,5.22e+01,
590,-8.00e-03,3.20e+01,5.22e+01,
591,-8.00e-03,3.20e+01,5.22e+01,
592,-8.00e-03,3.20e+01,5.24e+01,
593,-8.00e-03,3.20e+01,5.22e+01,
594,-8.00e-03,3.28e+01,5.22e+01,
595,-8.00e-03,3.28e+01,5.22e+01,
596,-8.00e-03,3.28e+01,5.22e+01,
597,-8.00e-03,3.28e+01,5.22e+01,
598,-2.40e-02,3.28e+01,5.22e+01,
599,-2.40e-02,3.28e+01,5.22e+01,
600,-2.40e-02,3.28e+01,5.22e+01,
601,-2.40e-02,3.28e+01,5.22e+01,
602,-2.40e-02,3.28e+01,5.22e+01,
603,-2.40e-02,3.28e+01,5.22e+01,
604,-2.40e-02,3.28e+01,5.22e+01,
605,-2.40e-02,3.28e+01,5.22e+01,
606,-2.40e-02,3.28e+01,5.22e+01,
607,-2.40e-02,3.28e+01,5.22e+01,
608,-2.40e-02,3.28e+01,5.22e+01,
609,-2.40e-02,3.28e+01,5.22e+01,
610,-2.40e-02,3.28e+01,5.22e+01,
611,-8.00e-03,3.28e+01,5.22e+01,
