assignments/07-lab/data/hf_snub.csv

X,CH1,CH2,CH3,Start,Increment,
Sequence,Volt,Volt,Volt,-1.720000e-06,4.000000e-09
0,1.68e-01,-1.60e+00,1.96e+01,
1,1.68e-01,-1.60e+00,1.96e+01,
2,1.68e-01,-1.60e+00,1.96e+01,
3,1.68e-01,-1.60e+00,1.96e+01,
4,1.68e-01,-1.60e+00,1.96e+01,
5,1.68e-01,-1.60e+00,1.96e+01,
6,1.68e-01,-1.60e+00,1.96e+01,
7,1.68e-01,-1.60e+00,1.96e+01,
8,1.68e-01,-1.60e+00,1.96e+01,
9,1.68e-01,-1.60e+00,1.96e+01,
10,1.68e-01,-1.60e+00,1.96e+01,
11,1.68e-01,-1.60e+00,1.96e+01,
12,1.68e-01,-1.60e+00,1.96e+01,
13,1.68e-01,-1.60e+00,1.96e+01,
14,1.68e-01,-1.60e+00,1.96e+01,
15,1.68e-01,-1.60e+00,1.96e+01,
16,1.68e-01,-1.60e+00,1.96e+01,
17,1.68e-01,-1.60e+00,1.96e+01,
18,1.68e-01,-1.60e+00,1.96e+01,
19,1.68e-01,-1.60e+00,1.96e+01,
20,1.68e-01,-1.60e+00,1.96e+01,
21,1.68e-01,-1.60e+00,1.96e+01,
22,1.68e-01,-1.60e+00,1.96e+01,
23,1.68e-01,-1.60e+00,1.96e+01,
24,1.68e-01,-1.60e+00,1.96e+01,
25,1.68e-01,-1.60e+00,1.96e+01,
26,1.84e-01,-1.60e+00,1.96e+01,
27,1.68e-01,-1.60e+00,1.96e+01,
28,1.68e-01,-1.60e+00,1.96e+01,
29,1.84e-01,-1.60e+00,1.96e+01,
30,1.84e-01,-1.60e+00,1.96e+01,
31,1.68e-01,-1.60e+00,1.96e+01,
32,1.84e-01,-1.60e+00,1.96e+01,
33,1.84e-01,-1.60e+00,1.96e+01,
34,1.84e-01,-1.60e+00,1.96e+01,
35,1.68e-01,-1.60e+00,1.96e+01,
36,1.84e-01,-1.60e+00,1.96e+01,
37,1.84e-01,-1.60e+00,1.96e+01,
38,1.84e-01,-1.60e+00,1.96e+01,
39,1.84e-01,-1.60e+00,1.96e+01,
40,1.84e-01,-1.60e+00,1.96e+01,
41,1.84e-01,-1.60e+00,1.96e+01,
42,1.84e-01,-1.60e+00,1.96e+01,
43,1.84e-01,-1.60e+00,1.96e+01,
44,1.84e-01,-1.60e+00,1.96e+01,
45,1.84e-01,-1.60e+00,1.96e+01,
46,1.84e-01,-1.60e+00,1.96e+01,
47,1.84e-01,-1.60e+00,1.96e+01,
48,1.84e-01,-1.60e+00,1.96e+01,
49,1.84e-01,-1.60e+00,1.96e+01,
50,1.84e-01,-1.60e+00,1.96e+01,
51,1.84e-01,-1.60e+00,1.96e+01,
52,1.84e-01,-1.60e+00,1.96e+01,
53,1.84e-01,-1.60e+00,1.96e+01,
54,1.84e-01,-1.60e+00,1.96e+01,
55,1.84e-01,-1.60e+00,1.96e+01,
56,1.84e-01,-1.60e+00,1.96e+01,
57,1.84e-01,-1.60e+00,1.96e+01,
58,1.84e-01,-1.60e+00,1.96e+01,
59,1.84e-01,-1.60e+00,1.96e+01,
60,1.84e-01,-1.60e+00,1.96e+01,
61,1.84e-01,-1.60e+00,1.96e+01,
62,1.84e-01,-1.60e+00,1.96e+01,
63,1.84e-01,-1.60e+00,1.96e+01,
64,1.84e-01,-1.60e+00,1.96e+01,
65,1.84e-01,-1.60e+00,1.96e+01,
66,1.84e-01,-1.60e+00,1.96e+01,
67,1.84e-01,-1.60e+00,1.96e+01,
68,1.84e-01,-1.60e+00,1.96e+01,
69,1.84e-01,-1.60e+00,1.96e+01,
70,1.84e-01,-1.60e+00,1.96e+01,
71,1.84e-01,-1.60e+00,1.96e+01,
72,1.84e-01,-1.60e+00,1.96e+01,
73,1.84e-01,-1.60e+00,1.96e+01,
74,1.84e-01,-1.60e+00,1.96e+01,
75,1.84e-01,-1.60e+00,1.96e+01,
76,1.84e-01,-1.60e+00,1.96e+01,
77,1.84e-01,-1.60e+00,1.96e+01,
78,1.84e-01,-1.60e+00,1.96e+01,
79,1.84e-01,-1.60e+00,1.96e+01,
80,1.84e-01,-1.60e+00,1.96e+01,
81,1.84e-01,-1.60e+00,1.96e+01,
82,1.84e-01,-1.60e+00,1.96e+01,
83,1.84e-01,-1.60e+00,1.96e+01,
84,1.84e-01,-1.60e+00,1.96e+01,
85,1.84e-01,-1.60e+00,1.96e+01,
86,1.84e-01,-1.60e+00,1.96e+01,
87,1.84e-01,-1.60e+00,1.96e+01,
88,1.84e-01,-1.60e+00,1.96e+01,
89,1.84e-01,-1.60e+00,1.96e+01,
90,1.84e-01,-1.60e+00,1.96e+01,
91,1.84e-01,-1.60e+00,1.96e+01,
92,1.84e-01,-1.60e+00,1.96e+01,
93,1.92e-01,-1.60e+00,1.96e+01,
94,1.84e-01,-1.60e+00,1.96e+01,
95,1.84e-01,-1.60e+00,1.96e+01,
96,1.84e-01,-1.60e+00,1.96e+01,
97,1.92e-01,-1.60e+00,1.96e+01,
98,1.92e-01,-1.60e+00,1.96e+01,
99,1.84e-01,-1.60e+00,1.96e+01,
100,1.92e-01,-1.60e+00,1.96e+01,
101,1.84e-01,-1.60e+00,1.96e+01,
102,1.92e-01,-1.60e+00,1.96e+01,
103,1.92e-01,-1.60e+00,1.96e+01,
104,1.92e-01,-1.60e+00,1.96e+01,
105,1.92e-01,-1.60e+00,1.96e+01,
106,1.92e-01,-1.60e+00,1.96e+01,
107,1.92e-01,-1.60e+00,1.96e+01,
108,1.92e-01,-1.60e+00,1.96e+01,
109,1.92e-01,-1.60e+00,1.96e+01,
110,1.92e-01,-1.60e+00,1.96e+01,
111,1.92e-01,-1.60e+00,1.96e+01,
112,1.92e-01,-1.60e+00,1.96e+01,
113,1.92e-01,-1.60e+00,1.96e+01,
114,1.92e-01,-1.60e+00,1.96e+01,
115,1.92e-01,-1.60e+00,1.96e+01,
116,1.92e-01,-1.60e+00,1.96e+01,
117,1.92e-01,-1.60e+00,1.96e+01,
118,1.92e-01,-1.60e+00,1.96e+01,
119,1.92e-01,-1.60e+00,1.96e+01,
120,1.92e-01,-1.60e+00,1.96e+01,
121,1.92e-01,-1.60e+00,1.96e+01,
122,1.92e-01,-1.60e+00,1.96e+01,
123,1.92e-01,-1.60e+00,1.96e+01,
124,1.92e-01,-1.60e+00,1.96e+01,
125,1.92e-01,-1.60e+00,1.96e+01,
126,1.92e-01,-1.60e+00,1.96e+01,
127,1.92e-01,-1.60e+00,1.96e+01,
128,1.92e-01,-1.60e+00,1.96e+01,
129,1.92e-01,-1.60e+00,1.96e+01,
130,1.92e-01,-1.60e+00,1.96e+01,
131,1.92e-01,-1.60e+00,1.96e+01,
132,1.92e-01,-1.60e+00,1.96e+01,
133,1.92e-01,-1.60e+00,1.96e+01,
134,1.92e-01,-1.60e+00,1.96e+01,
135,1.92e-01,-1.60e+00,1.96e+01,
136,1.92e-01,-1.60e+00,1.96e+01,
137,1.92e-01,-1.60e+00,1.96e+01,
138,1.92e-01,-1.60e+00,1.96e+01,
139,1.92e-01,-1.60e+00,1.96e+01,
140,1.92e-01,-1.60e+00,1.96e+01,
141,1.92e-01,-1.60e+00,1.96e+01,
142,1.92e-01,-1.60e+00,1.96e+01,
143,1.92e-01,-1.60e+00,1.96e+01,
144,1.92e-01,-1.60e+00,1.96e+01,
145,1.92e-01,-1.60e+00,1.96e+01,
146,1.92e-01,-1.60e+00,1.96e+01,
147,1.92e-01,-1.60e+00,1.96e+01,
148,1.92e-01,-1.60e+00,1.96e+01,
149,1.92e-01,-1.60e+00,1.96e+01,
150,1.92e-01,-1.60e+00,1.96e+01,
151,1.92e-01,-1.60e+00,1.96e+01,
152,1.92e-01,-1.60e+00,1.96e+01,
153,1.92e-01,-1.60e+00,1.96e+01,
154,1.92e-01,-1.60e+00,1.96e+01,
155,1.92e-01,-1.60e+00,1.96e+01,
156,1.92e-01,-1.60e+00,1.96e+01,
157,1.92e-01,-1.60e+00,1.96e+01,
158,2.08e-01,-1.60e+00,1.96e+01,
159,1.92e-01,-1.60e+00,1.96e+01,
160,1.92e-01,-1.60e+00,1.96e+01,
161,2.08e-01,-1.60e+00,1.96e+01,
162,2.08e-01,-1.60e+00,1.96e+01,
163,1.92e-01,-1.60e+00,1.96e+01,
164,1.92e-01,-1.60e+00,1.96e+01,
165,1.92e-01,-1.60e+00,1.96e+01,
166,2.08e-01,-1.60e+00,1.96e+01,
167,1.92e-01,-1.60e+00,1.96e+01,
168,2.08e-01,-1.60e+00,1.96e+01,
169,2.08e-01,-1.60e+00,1.96e+01,
170,2.08e-01,-1.60e+00,1.96e+01,
171,1.92e-01,-1.60e+00,1.96e+01,
172,2.08e-01,-1.60e+00,1.96e+01,
173,2.08e-01,-1.60e+00,1.96e+01,
174,2.08e-01,-1.60e+00,1.96e+01,
175,1.92e-01,-1.60e+00,1.96e+01,
176,1.92e-01,-1.60e+00,1.96e+01,
177,2.08e-01,-1.60e+00,1.96e+01,
178,2.08e-01,-1.60e+00,1.96e+01,
179,2.08e-01,-1.60e+00,1.96e+01,
180,2.08e-01,-1.60e+00,1.96e+01,
181,2.08e-01,-1.60e+00,1.96e+01,
182,2.08e-01,-1.60e+00,1.96e+01,
183,2.08e-01,-1.60e+00,1.96e+01,
184,2.08e-01,-1.60e+00,1.96e+01,
185,2.08e-01,-1.60e+00,1.96e+01,
186,2.08e-01,-1.60e+00,1.96e+01,
187,2.08e-01,-1.60e+00,1.96e+01,
188,2.08e-01,-1.60e+00,1.96e+01,
189,2.08e-01,-1.60e+00,1.96e+01,
190,2.08e-01,-1.60e+00,1.96e+01,
191,2.08e-01,-1.60e+00,1.96e+01,
192,2.08e-01,-1.60e+00,1.96e+01,
193,2.08e-01,-1.60e+00,1.96e+01,
194,2.08e-01,-1.60e+00,1.96e+01,
195,2.08e-01,-1.60e+00,1.96e+01,
196,2.08e-01,-1.60e+00,1.96e+01,
197,2.08e-01,-1.60e+00,1.96e+01,
198,2.08e-01,-1.60e+00,1.96e+01,
199,2.08e-01,-1.60e+00,1.96e+01,
200,2.08e-01,-1.60e+00,1.96e+01,
201,2.08e-01,-1.60e+00,1.96e+01,
202,2.08e-01,-1.60e+00,1.96e+01,
203,2.08e-01,-1.60e+00,1.96e+01,
204,2.08e-01,-1.60e+00,1.96e+01,
205,2.08e-01,-1.60e+00,1.96e+01,
206,2.08e-01,-1.60e+00,1.96e+01,
207,2.08e-01,-1.60e+00,1.96e+01,
208,2.08e-01,-1.60e+00,1.96e+01,
209,2.08e-01,-1.60e+00,1.96e+01,
210,2.16e-01,-1.60e+00,1.96e+01,
211,2.08e-01,-1.60e+00,1.96e+01,
212,2.08e-01,-1.60e+00,1.96e+01,
213,2.08e-01,-1.60e+00,1.96e+01,
214,2.08e-01,-1.60e+00,1.96e+01,
215,2.08e-01,-1.60e+00,1.96e+01,
216,2.08e-01,-1.60e+00,1.96e+01,
217,2.08e-01,-1.60e+00,1.96e+01,
218,2.08e-01,-1.60e+00,1.96e+01,
219,2.08e-01,-1.60e+00,1.96e+01,
220,2.08e-01,-1.60e+00,1.96e+01,
221,2.08e-01,-1.60e+00,1.96e+01,
222,2.16e-01,-1.60e+00,1.96e+01,
223,2.08e-01,-1.60e+00,1.96e+01,
224,2.08e-01,-1.60e+00,1.96e+01,
225,2.16e-01,-1.60e+00,1.96e+01,
226,2.16e-01,-1.60e+00,1.96e+01,
227,2.08e-01,-1.60e+00,1.96e+01,
228,2.16e-01,-1.60e+00,1.96e+01,
229,2.16e-01,-1.60e+00,1.96e+01,
230,2.16e-01,-1.60e+00,1.96e+01,
231,2.16e-01,-1.60e+00,1.96e+01,
232,2.16e-01,-1.60e+00,1.96e+01,
233,2.16e-01,-1.60e+00,1.96e+01,
234,2.16e-01,-1.60e+00,1.96e+01,
235,2.16e-01,-1.60e+00,1.96e+01,
236,2.16e-01,-1.60e+00,1.96e+01,
237,2.16e-01,-1.60e+00,1.96e+01,
238,2.16e-01,-1.60e+00,1.96e+01,
239,2.16e-01,-1.60e+00,1.96e+01,
240,2.16e-01,-1.60e+00,1.96e+01,
241,2.16e-01,-1.60e+00,1.96e+01,
242,2.16e-01,-1.60e+00,1.96e+01,
243,2.16e-01,-1.60e+00,1.96e+01,
244,2.16e-01,-1.60e+00,1.96e+01,
245,2.16e-01,-1.60e+00,1.96e+01,
246,2.16e-01,-1.60e+00,1.96e+01,
247,2.16e-01,-1.60e+00,1.96e+01,
248,2.16e-01,-1.60e+00,1.96e+01,
249,2.16e-01,-1.60e+00,1.96e+01,
250,2.16e-01,-1.60e+00,1.96e+01,
251,2.16e-01,-1.60e+00,1.96e+01,
252,2.16e-01,-1.60e+00,1.96e+01,
253,2.16e-01,-1.60e+00,1.96e+01,
254,2.16e-01,-1.60e+00,1.96e+01,
255,2.16e-01,-1.60e+00,1.96e+01,
256,2.16e-01,-1.60e+00,1.96e+01,
257,2.16e-01,-1.60e+00,1.96e+01,
258,2.16e-01,-1.60e+00,1.96e+01,
259,2.16e-01,-1.60e+00,1.96e+01,
260,2.16e-01,-1.60e+00,1.96e+01,
261,2.16e-01,-1.60e+00,1.96e+01,
262,2.16e-01,-1.60e+00,1.96e+01,
263,2.16e-01,-1.60e+00,1.96e+01,
264,2.16e-01,-1.60e+00,1.96e+01,
265,2.16e-01,-1.60e+00,1.96e+01,
266,2.16e-01,-1.60e+00,1.96e+01,
267,2.16e-01,-1.60e+00,1.96e+01,
268,2.16e-01,-1.60e+00,1.96e+01,
269,2.16e-01,-1.60e+00,1.96e+01,
270,2.16e-01,-1.60e+00,1.96e+01,
271,2.16e-01,-1.60e+00,1.96e+01,
272,2.16e-01,-1.60e+00,1.96e+01,
273,2.16e-01,-1.60e+00,1.96e+01,
274,2.16e-01,-1.60e+00,1.96e+01,
275,2.16e-01,-1.60e+00,1.96e+01,
276,2.16e-01,-1.60e+00,1.96e+01,
277,2.16e-01,-1.60e+00,1.96e+01,
278,2.16e-01,-1.60e+00,1.96e+01,
279,2.16e-01,-1.60e+00,1.96e+01,
280,2.16e-01,-1.60e+00,1.96e+01,
281,2.16e-01,-1.60e+00,1.96e+01,
282,2.16e-01,-1.60e+00,1.96e+01,
283,2.16e-01,-1.60e+00,1.96e+01,
284,2.16e-01,-1.60e+00,1.96e+01,
285,2.16e-01,-1.60e+00,1.96e+01,
286,2.16e-01,-1.60e+00,1.96e+01,
287,2.16e-01,-1.60e+00,1.96e+01,
288,2.16e-01,-1.60e+00,1.96e+01,
289,2.32e-01,-1.60e+00,1.96e+01,
290,2.32e-01,-1.60e+00,1.96e+01,
291,2.16e-01,-1.60e+00,1.96e+01,
292,2.16e-01,-1.60e+00,1.96e+01,
293,2.16e-01,-1.60e+00,1.96e+01,
294,2.32e-01,-1.60e+00,1.96e+01,
295,2.32e-01,-1.60e+00,1.96e+01,
296,2.32e-01,-1.60e+00,1.96e+01,
297,2.32e-01,-1.60e+00,1.96e+01,
298,2.32e-01,-1.60e+00,1.96e+01,
299,2.16e-01,-1.60e+00,1.96e+01,
300,2.32e-01,-1.60e+00,1.96e+01,
301,2.32e-01,-1.60e+00,1.96e+01,
302,2.32e-01,-1.60e+00,1.96e+01,
303,2.32e-01,-1.60e+00,1.96e+01,
304,2.32e-01,-1.60e+00,1.96e+01,
305,2.32e-01,-1.60e+00,1.96e+01,
306,2.32e-01,-1.60e+00,1.96e+01,
307,2.32e-01,-1.60e+00,1.96e+01,
308,2.32e-01,-1.60e+00,1.96e+01,
309,2.32e-01,-1.60e+00,1.96e+01,
310,2.32e-01,-1.60e+00,1.96e+01,
311,2.32e-01,-1.60e+00,1.96e+01,
312,2.32e-01,-1.60e+00,1.96e+01,
313,2.32e-01,-1.60e+00,1.96e+01,
314,2.32e-01,-1.60e+00,1.96e+01,
315,2.32e-01,-1.60e+00,1.96e+01,
316,2.32e-01,-1.60e+00,1.96e+01,
317,2.32e-01,-1.60e+00,1.96e+01,
318,2.32e-01,-1.60e+00,1.96e+01,
319,2.32e-01,-1.60e+00,1.96e+01,
320,2.32e-01,-1.60e+00,1.96e+01,
321,2.32e-01,-1.60e+00,1.96e+01,
322,2.32e-01,-1.60e+00,1.96e+01,
323,2.32e-01,-1.60e+00,1.96e+01,
324,2.32e-01,-1.60e+00,1.96e+01,
325,2.32e-01,-1.60e+00,1.96e+01,
326,2.32e-01,-1.60e+00,1.96e+01,
327,2.32e-01,-1.60e+00,1.96e+01,
328,2.32e-01,-1.60e+00,1.96e+01,
329,2.32e-01,-1.60e+00,1.96e+01,
330,1.92e-01,-1.60e+00,1.96e+01,
331,1.60e-01,-1.60e+00,1.96e+01,
332,1.36e-01,-1.60e+00,1.96e+01,
333,1.60e-01,-1.60e+00,1.96e+01,
334,1.84e-01,-1.60e+00,1.96e+01,
335,1.92e-01,-1.60e+00,1.96e+01,
336,2.08e-01,-1.60e+00,1.96e+01,
337,2.08e-01,-1.60e+00,1.96e+01,
338,2.16e-01,-1.60e+00,1.96e+01,
339,2.16e-01,-1.60e+00,1.96e+01,
340,2.16e-01,-1.60e+00,1.96e+01,
341,2.16e-01,-1.60e+00,1.96e+01,
342,2.16e-01,-1.60e+00,1.96e+01,
343,2.16e-01,-1.60e+00,1.96e+01,
344,2.16e-01,-1.60e+00,1.96e+01,
345,2.16e-01,-1.60e+00,1.96e+01,
346,2.16e-01,-1.60e+00,1.96e+01,
347,2.16e-01,-1.60e+00,1.96e+01,
348,2.16e-01,-1.60e+00,1.96e+01,
349,2.16e-01,-1.60e+00,1.96e+01,
350,2.16e-01,-1.60e+00,1.96e+01,
351,2.16e-01,-1.60e+00,1.96e+01,
352,2.16e-01,-1.60e+00,1.96e+01,
353,2.32e-01,-1.60e+00,1.96e+01,
354,2.32e-01,-1.60e+00,1.96e+01,
355,2.16e-01,-1.60e+00,1.96e+01,
356,2.16e-01,-1.60e+00,1.96e+01,
357,2.32e-01,-1.60e+00,1.96e+01,
358,2.32e-01,-1.60e+00,1.96e+01,
359,2.32e-01,-1.60e+00,1.96e+01,
360,2.32e-01,-1.60e+00,1.96e+01,
361,2.32e-01,-1.60e+00,1.96e+01,
362,2.32e-01,-1.60e+00,1.96e+01,
363,2.32e-01,-1.60e+00,1.96e+01,
364,2.32e-01,-1.60e+00,1.96e+01,
365,2.32e-01,-1.60e+00,1.96e+01,
366,2.32e-01,-1.60e+00,1.96e+01,
367,2.32e-01,-1.60e+00,1.96e+01,
368,2.32e-01,-1.60e+00,1.96e+01,
369,2.32e-01,-1.60e+00,1.96e+01,
370,2.32e-01,-1.60e+00,1.96e+01,
371,2.32e-01,-1.60e+00,1.96e+01,
372,2.32e-01,-1.60e+00,1.96e+01,
373,2.32e-01,-1.60e+00,1.96e+01,
374,2.32e-01,-1.60e+00,1.96e+01,
375,2.32e-01,-1.60e+00,1.96e+01,
376,2.32e-01,-1.60e+00,1.96e+01,
377,2.32e-01,-1.60e+00,1.96e+01,
378,2.32e-01,-1.60e+00,1.96e+01,
379,2.32e-01,-1.60e+00,1.96e+01,
380,2.32e-01,-1.60e+00,1.96e+01,
381,2.32e-01,-1.60e+00,1.96e+01,
382,2.32e-01,-1.60e+00,1.96e+01,
383,2.32e-01,-1.06e-04,1.96e+01,
384,2.32e-01,-1.60e+00,1.96e+01,
385,2.32e-01,-1.06e-04,1.96e+01,
386,2.32e-01,-1.06e-04,1.96e+01,
387,2.32e-01,-1.06e-04,1.96e+01,
388,2.32e-01,-1.06e-04,1.96e+01,
389,2.32e-01,-1.06e-04,1.96e+01,
390,2.32e-01,-1.06e-04,1.96e+01,
391,2.32e-01,-1.06e-04,1.96e+01,
392,2.32e-01,-1.06e-04,1.96e+01,
393,2.32e-01,8.00e-01,1.96e+01,
394,2.32e-01,8.00e-01,1.96e+01,
395,2.32e-01,8.00e-01,1.96e+01,
396,2.32e-01,8.00e-01,1.96e+01,
397,2.32e-01,8.00e-01,1.96e+01,
398,2.32e-01,2.40e+00,1.96e+01,
399,2.32e-01,2.40e+00,1.96e+01,
400,2.32e-01,2.40e+00,1.96e+01,
401,2.32e-01,2.40e+00,1.96e+01,
402,2.32e-01,2.40e+00,1.96e+01,
403,2.16e-01,3.20e+00,1.96e+01,
404,2.32e-01,3.20e+00,1.96e+01,
405,2.32e-01,3.20e+00,1.96e+01,
406,2.32e-01,3.20e+00,1.96e+01,
407,2.16e-01,4.80e+00,1.96e+01,
408,2.16e-01,4.80e+00,1.96e+01,
409,2.16e-01,4.80e+00,1.96e+01,
410,2.16e-01,6.40e+00,1.96e+01,
411,2.08e-01,6.40e+00,1.96e+01,
412,1.92e-01,7.20e+00,1.96e+01,
413,1.84e-01,8.80e+00,1.96e+01,
414,1.68e-01,9.60e+00,1.96e+01,
415,1.44e-01,1.20e+01,1.96e+01,
416,1.20e-01,1.44e+01,1.96e+01,
417,8.80e-02,1.84e+01,1.96e+01,
418,4.00e-02,2.24e+01,1.96e+01,
419,-8.00e-03,2.80e+01,1.96e+01,
420,-5.60e-02,3.28e+01,1.96e+01,
421,-1.20e-01,4.08e+01,1.96e+01,
422,-1.92e-01,4.64e+01,1.96e+01,
423,-2.48e-01,5.28e+01,1.96e+01,
424,-2.96e-01,5.92e+01,1.96e+01,
425,-3.36e-01,6.40e+01,1.96e+01,
426,-3.60e-01,6.88e+01,1.96e+01,
427,-3.60e-01,7.28e+01,1.96e+01,
428,-3.36e-01,7.36e+01,1.96e+01,
429,-2.72e-01,7.36e+01,1.96e+01,
430,-1.92e-01,7.12e+01,1.96e+01,
431,-1.20e-01,6.64e+01,1.96e+01,
432,-7.20e-02,6.24e+01,1.96e+01,
433,-3.20e-02,5.76e+01,1.96e+01,
434,-2.40e-02,5.28e+01,1.96e+01,
435,-2.40e-02,4.88e+01,1.96e+01,
436,-8.00e-03,4.56e+01,1.96e+01,
437,-8.00e-03,4.32e+01,1.96e+01,
438,-8.00e-03,4.08e+01,1.96e+01,
439,-8.00e-03,3.84e+01,1.96e+01,
440,-8.00e-03,3.60e+01,1.96e+01,
441,-8.00e-03,3.44e+01,1.96e+01,
442,0.00e+00,3.20e+01,1.96e+01,
443,0.00e+00,3.04e+01,1.96e+01,
444,0.00e+00,2.96e+01,1.96e+01,
445,0.00e+00,2.80e+01,1.96e+01,
446,0.00e+00,2.80e+01,1.96e+01,
447,0.00e+00,2.72e+01,1.96e+01,
448,0.00e+00,2.72e+01,1.96e+01,
449,0.00e+00,2.72e+01,1.96e+01,
450,0.00e+00,2.56e+01,1.96e+01,
451,0.00e+00,2.56e+01,1.96e+01,
452,0.00e+00,2.56e+01,1.96e+01,
453,0.00e+00,2.56e+01,1.96e+01,
454,0.00e+00,2.56e+01,1.96e+01,
455,0.00e+00,2.56e+01,1.96e+01,
456,0.00e+00,2.56e+01,1.96e+01,
457,0.00e+00,2.56e+01,1.96e+01,
458,-8.00e-03,2.72e+01,1.96e+01,
459,-8.00e-03,2.72e+01,1.96e+01,
460,-8.00e-03,2.72e+01,1.96e+01,
461,-8.00e-03,2.72e+01,1.96e+01,
462,-8.00e-03,2.72e+01,1.96e+01,
463,-8.00e-03,2.72e+01,1.96e+01,
464,-8.00e-03,2.80e+01,1.96e+01,
465,-8.00e-03,2.80e+01,1.96e+01,
466,-8.00e-03,2.80e+01,1.96e+01,
467,-8.00e-03,2.80e+01,1.96e+01,
468,-8.00e-03,2.80e+01,1.96e+01,
469,-8.00e-03,2.80e+01,1.96e+01,
470,-8.00e-03,2.80e+01,1.96e+01,
471,-8.00e-03,2.80e+01,1.96e+01,
472,-8.00e-03,2.80e+01,1.96e+01,
473,-8.00e-03,2.80e+01,1.96e+01,
474,-8.00e-03,2.80e+01,1.96e+01,
475,-8.00e-03,2.96e+01,1.96e+01,
476,-8.00e-03,2.80e+01,1.96e+01,
477,-8.00e-03,2.96e+01,1.96e+01,
478,-8.00e-03,2.80e+01,1.96e+01,
479,-8.00e-03,2.80e+01,1.96e+01,
480,-8.00e-03,2.80e+01,1.96e+01,
481,-8.00e-03,2.96e+01,1.96e+01,
482,-8.00e-03,2.80e+01,1.96e+01,
483,-8.00e-03,2.80e+01,1.96e+01,
484,-8.00e-03,2.80e+01,1.96e+01,
485,-8.00e-03,2.80e+01,1.96e+01,
486,-8.00e-03,2.80e+01,1.96e+01,
487,-8.00e-03,2.80e+01,1.96e+01,
488,-8.00e-03,2.80e+01,1.96e+01,
489,-8.00e-03,2.80e+01,1.96e+01,
490,-8.00e-03,2.80e+01,1.96e+01,
491,-8.00e-03,2.80e+01,1.96e+01,
492,-8.00e-03,2.80e+01,1.96e+01,
493,-8.00e-03,2.80e+01,1.96e+01,
494,-8.00e-03,2.80e+01,1.96e+01,
495,-8.00e-03,2.80e+01,1.96e+01,
496,-8.00e-03,2.80e+01,1.96e+01,
497,-8.00e-03,2.80e+01,1.96e+01,
498,-8.00e-03,2.80e+01,1.96e+01,
499,-8.00e-03,2.80e+01,1.96e+01,
500,-8.00e-03,2.80e+01,1.96e+01,
501,-8.00e-03,2.80e+01,1.96e+01,
502,-8.00e-03,2.80e+01,1.96e+01,
503,-8.00e-03,2.80e+01,1.96e+01,
504,-8.00e-03,2.80e+01,1.96e+01,
505,-8.00e-03,2.80e+01,1.96e+01,
506,-8.00e-03,2.80e+01,1.96e+01,
507,-8.00e-03,2.80e+01,1.96e+01,
508,-8.00e-03,2.80e+01,1.96e+01,
509,-8.00e-03,2.80e+01,1.96e+01,
510,-8.00e-03,2.80e+01,1.96e+01,
511,-8.00e-03,2.80e+01,1.96e+01,
512,-8.00e-03,2.80e+01,1.96e+01,
513,-8.00e-03,2.80e+01,1.96e+01,
514,-8.00e-03,2.80e+01,1.96e+01,
515,-8.00e-03,2.80e+01,1.96e+01,
516,-8.00e-03,2.80e+01,1.96e+01,
517,-8.00e-03,2.80e+01,1.96e+01,
518,-8.00e-03,2.80e+01,1.96e+01,
519,-8.00e-03,2.80e+01,1.96e+01,
520,-8.00e-03,2.80e+01,1.96e+01,
521,-8.00e-03,2.80e+01,1.96e+01,
522,-8.00e-03,2.80e+01,1.96e+01,
523,-8.00e-03,2.80e+01,1.96e+01,
524,-8.00e-03,2.80e+01,1.96e+01,
525,0.00e+00,2.80e+01,1.96e+01,
526,-8.00e-03,2.80e+01,1.96e+01,
527,-8.00e-03,2.80e+01,1.96e+01,
528,-8.00e-03,2.80e+01,1.96e+01,
529,-8.00e-03,2.80e+01,1.96e+01,
530,-8.00e-03,2.80e+01,1.96e+01,
531,-8.00e-03,2.80e+01,1.96e+01,
532,-8.00e-03,2.80e+01,1.96e+01,
533,-8.00e-03,2.80e+01,1.96e+01,
534,-8.00e-03,2.80e+01,1.96e+01,
535,-8.00e-03,2.80e+01,1.96e+01,
536,-8.00e-03,2.80e+01,1.96e+01,
537,0.00e+00,2.80e+01,1.96e+01,
538,-8.00e-03,2.80e+01,1.96e+01,
539,-8.00e-03,2.80e+01,1.96e+01,
540,-8.00e-03,2.80e+01,1.96e+01,
541,-8.00e-03,2.80e+01,1.96e+01,
542,-8.00e-03,2.80e+01,1.96e+01,
543,-8.00e-03,2.80e+01,1.96e+01,
544,-8.00e-03,2.80e+01,1.96e+01,
545,-8.00e-03,2.80e+01,1.96e+01,
546,-8.00e-03,2.80e+01,1.96e+01,
547,-8.00e-03,2.80e+01,1.96e+01,
548,-8.00e-03,2.80e+01,1.96e+01,
549,-8.00e-03,2.80e+01,1.96e+01,
550,-8.00e-03,2.80e+01,1.96e+01,
551,-8.00e-03,2.80e+01,1.96e+01,
552,-8.00e-03,2.80e+01,1.96e+01,
553,-8.00e-03,2.80e+01,1.96e+01,
554,-8.00e-03,2.80e+01,1.96e+01,
555,-8.00e-03,2.80e+01,1.96e+01,
556,-8.00e-03,2.80e+01,1.96e+01,
557,-8.00e-03,2.80e+01,1.96e+01,
558,-8.00e-03,2.80e+01,1.96e+01,
559,-8.00e-03,2.80e+01,1.96e+01,
560,-8.00e-03,2.80e+01,1.96e+01,
561,-8.00e-03,2.80e+01,1.96e+01,
562,-8.00e-03,2.80e+01,1.96e+01,
563,-8.00e-03,2.80e+01,1.96e+01,
564,-8.00e-03,2.80e+01,1.96e+01,
565,-8.00e-03,2.80e+01,1.96e+01,
566,-8.00e-03,2.80e+01,1.96e+01,
567,-8.00e-03,2.80e+01,1.96e+01,
568,-8.00e-03,2.80e+01,1.96e+01,
569,-8.00e-03,2.80e+01,1.96e+01,
570,-8.00e-03,2.80e+01,1.96e+01,
571,-8.00e-03,2.80e+01,1.96e+01,
572,-8.00e-03,2.80e+01,1.96e+01,
573,-8.00e-03,2.80e+01,1.96e+01,
574,-8.00e-03,2.80e+01,1.96e+01,
575,-8.00e-03,2.80e+01,1.96e+01,
576,-8.00e-03,2.80e+01,1.96e+01,
577,-8.00e-03,2.80e+01,1.96e+01,
578,-8.00e-03,2.80e+01,1.96e+01,
579,-8.00e-03,2.80e+01,1.96e+01,
580,-8.00e-03,2.80e+01,1.96e+01,
581,-8.00e-03,2.80e+01,1.96e+01,
582,-8.00e-03,2.80e+01,1.96e+01,
583,-8.00e-03,2.80e+01,1.96e+01,
584,-8.00e-03,2.80e+01,1.96e+01,
585,-8.00e-03,2.80e+01,1.96e+01,
586,-8.00e-03,2.80e+01,1.96e+01,
587,-8.00e-03,2.80e+01,1.96e+01,
588,-8.00e-03,2.80e+01,1.96e+01,
589,-8.00e-03,2.80e+01,1.96e+01,
590,-8.00e-03,2.80e+01,1.96e+01,
591,-8.00e-03,2.80e+01,1.96e+01,
592,-8.00e-03,2.80e+01,1.96e+01,
593,-8.00e-03,2.80e+01,1.96e+01,
594,-8.00e-03,2.80e+01,1.96e+01,
595,-8.00e-03,2.80e+01,1.96e+01,
596,-8.00e-03,2.80e+01,1.96e+01,
597,0.00e+00,2.80e+01,1.96e+01,
598,-8.00e-03,2.80e+01,1.96e+01,
599,-8.00e-03,2.80e+01,1.96e+01,
600,-8.00e-03,2.80e+01,1.96e+01,
601,-8.00e-03,2.80e+01,1.96e+01,
602,-8.00e-03,2.80e+01,1.96e+01,
603,-8.00e-03,2.80e+01,1.96e+01,
604,-8.00e-03,2.80e+01,1.96e+01,
605,0.00e+00,2.80e+01,1.96e+01,
606,0.00e+00,2.80e+01,1.96e+01,
607,-8.00e-03,2.80e+01,1.96e+01,
