assignments/06-lab/data/t1_10v.csv

X,CH1,CH2,Start,Increment,
Sequence,Volt,Volt,-3.000000e-05,2.000000e-09
0,-4.00e-03,9.60e+00,
1,-4.00e-03,9.60e+00,
2,-4.00e-03,9.60e+00,
3,-4.00e-03,9.60e+00,
4,-4.00e-03,9.20e+00,
5,-4.00e-03,9.60e+00,
6,-8.00e-03,9.60e+00,
7,-4.00e-03,9.20e+00,
8,-4.00e-03,9.20e+00,
9,-4.00e-03,9.20e+00,
10,-4.00e-03,9.60e+00,
11,-4.00e-03,9.20e+00,
12,-4.00e-03,9.20e+00,
13,-4.00e-03,9.20e+00,
14,-4.00e-03,9.20e+00,
15,-4.00e-03,9.20e+00,
16,-4.00e-03,9.20e+00,
17,-4.00e-03,9.60e+00,
18,-4.00e-03,9.60e+00,
19,-4.00e-03,9.20e+00,
20,-4.00e-03,9.20e+00,
21,-4.00e-03,9.20e+00,
22,-4.00e-03,9.60e+00,
23,-4.00e-03,9.60e+00,
24,-8.00e-03,9.20e+00,
25,0.00e+00,9.20e+00,
26,-4.00e-03,9.60e+00,
27,-4.00e-03,9.20e+00,
28,-4.00e-03,9.20e+00,
29,-4.00e-03,9.60e+00,
30,-4.00e-03,9.60e+00,
31,-4.00e-03,9.60e+00,
32,-4.00e-03,9.60e+00,
33,-4.00e-03,9.60e+00,
34,-4.00e-03,9.60e+00,
35,-4.00e-03,9.60e+00,
36,0.00e+00,9.60e+00,
37,-4.00e-03,9.60e+00,
38,-4.00e-03,9.60e+00,
39,0.00e+00,9.60e+00,
40,-4.00e-03,9.60e+00,
41,-4.00e-03,9.60e+00,
42,-4.00e-03,1.00e+01,
43,0.00e+00,9.60e+00,
44,-4.00e-03,9.60e+00,
45,-4.00e-03,1.00e+01,
46,-4.00e-03,1.00e+01,
47,-4.00e-03,1.00e+01,
48,-4.00e-03,1.00e+01,
49,-4.00e-03,1.00e+01,
50,-4.00e-03,1.04e+01,
51,-4.00e-03,1.00e+01,
52,-4.00e-03,1.00e+01,
53,-4.00e-03,1.04e+01,
54,-4.00e-03,1.04e+01,
55,0.00e+00,1.04e+01,
56,-4.00e-03,1.04e+01,
57,-4.00e-03,1.04e+01,
58,-4.00e-03,1.08e+01,
59,0.00e+00,1.04e+01,
60,-4.00e-03,1.04e+01,
61,-4.00e-03,1.08e+01,
62,-4.00e-03,1.08e+01,
63,0.00e+00,1.08e+01,
64,-4.00e-03,1.08e+01,
65,-4.00e-03,1.12e+01,
66,-4.00e-03,1.12e+01,
67,0.00e+00,1.12e+01,
68,-4.00e-03,1.12e+01,
69,-4.00e-03,1.12e+01,
70,-4.00e-03,1.16e+01,
71,-4.00e-03,1.16e+01,
72,-4.00e-03,1.16e+01,
73,0.00e+00,1.16e+01,
74,-4.00e-03,1.16e+01,
75,0.00e+00,1.16e+01,
76,0.00e+00,1.16e+01,
77,0.00e+00,1.20e+01,
78,-4.00e-03,1.20e+01,
79,0.00e+00,1.20e+01,
80,-4.00e-03,1.20e+01,
81,-4.00e-03,1.24e+01,
82,-4.00e-03,1.24e+01,
83,0.00e+00,1.24e+01,
84,-4.00e-03,1.24e+01,
85,-4.00e-03,1.28e+01,
86,-4.00e-03,1.28e+01,
87,0.00e+00,1.28e+01,
88,-4.00e-03,1.28e+01,
89,-4.00e-03,1.32e+01,
90,-4.00e-03,1.32e+01,
91,0.00e+00,1.32e+01,
92,0.00e+00,1.32e+01,
93,-4.00e-03,1.36e+01,
94,-4.00e-03,1.40e+01,
95,0.00e+00,1.40e+01,
96,-4.00e-03,1.40e+01,
97,-4.00e-03,1.40e+01,
98,-4.00e-03,1.44e+01,
99,0.00e+00,1.44e+01,
100,0.00e+00,1.44e+01,
101,-4.00e-03,1.44e+01,
102,-4.00e-03,1.48e+01,
103,0.00e+00,1.48e+01,
104,-4.00e-03,1.48e+01,
105,-4.00e-03,1.52e+01,
106,-4.00e-03,1.52e+01,
107,0.00e+00,1.52e+01,
108,-4.00e-03,1.52e+01,
109,-4.00e-03,1.60e+01,
110,-4.00e-03,1.64e+01,
111,-4.00e-03,1.60e+01,
112,-4.00e-03,1.64e+01,
113,-4.00e-03,1.64e+01,
114,-4.00e-03,1.68e+01,
115,-4.00e-03,1.68e+01,
116,-4.00e-03,1.68e+01,
117,0.00e+00,1.68e+01,
118,-4.00e-03,1.72e+01,
119,0.00e+00,1.72e+01,
120,-4.00e-03,1.76e+01,
121,0.00e+00,1.76e+01,
122,-4.00e-03,1.76e+01,
123,-4.00e-03,1.80e+01,
124,0.00e+00,1.80e+01,
125,-4.00e-03,1.80e+01,
126,-4.00e-03,1.84e+01,
127,0.00e+00,1.84e+01,
128,-4.00e-03,1.84e+01,
129,-4.00e-03,1.88e+01,
130,-4.00e-03,1.92e+01,
131,-4.00e-03,1.92e+01,
132,-4.00e-03,1.92e+01,
133,-4.00e-03,1.96e+01,
134,-4.00e-03,1.96e+01,
135,0.00e+00,2.00e+01,
136,-4.00e-03,2.00e+01,
137,-4.00e-03,2.00e+01,
138,-4.00e-03,2.04e+01,
139,-4.00e-03,2.04e+01,
140,-4.00e-03,2.04e+01,
141,-4.00e-03,2.08e+01,
142,-4.00e-03,2.08e+01,
143,0.00e+00,2.08e+01,
144,-4.00e-03,2.12e+01,
145,-4.00e-03,2.12e+01,
146,-4.00e-03,2.16e+01,
147,-4.00e-03,2.16e+01,
148,-4.00e-03,2.16e+01,
149,-4.00e-03,2.20e+01,
150,-4.00e-03,2.20e+01,
151,-4.00e-03,2.24e+01,
152,-4.00e-03,2.24e+01,
153,-4.00e-03,2.24e+01,
154,-4.00e-03,2.28e+01,
155,-4.00e-03,2.28e+01,
156,-4.00e-03,2.28e+01,
157,-4.00e-03,2.36e+01,
158,-8.00e-03,2.36e+01,
159,-4.00e-03,2.40e+01,
160,-4.00e-03,2.40e+01,
161,-8.00e-03,2.40e+01,
162,-4.00e-03,2.44e+01,
163,-4.00e-03,2.44e+01,
164,-4.00e-03,2.44e+01,
165,-4.00e-03,2.48e+01,
166,-4.00e-03,2.48e+01,
167,-4.00e-03,2.48e+01,
168,-4.00e-03,2.52e+01,
169,-4.00e-03,2.52e+01,
170,-8.00e-03,2.56e+01,
171,-4.00e-03,2.56e+01,
172,-8.00e-03,2.56e+01,
173,-4.00e-03,2.56e+01,
174,-8.00e-03,2.60e+01,
175,-4.00e-03,2.60e+01,
176,-8.00e-03,2.60e+01,
177,-4.00e-03,2.60e+01,
178,-4.00e-03,2.64e+01,
179,-4.00e-03,2.64e+01,
180,-4.00e-03,2.64e+01,
181,-8.00e-03,2.68e+01,
182,-8.00e-03,2.68e+01,
183,-4.00e-03,2.72e+01,
184,-8.00e-03,2.72e+01,
185,-4.00e-03,2.72e+01,
186,-4.00e-03,2.72e+01,
187,-8.00e-03,2.76e+01,
188,-8.00e-03,2.76e+01,
189,-8.00e-03,2.76e+01,
190,-8.00e-03,2.76e+01,
191,-4.00e-03,2.80e+01,
192,-8.00e-03,2.76e+01,
193,-8.00e-03,2.80e+01,
194,-8.00e-03,2.80e+01,
195,-4.00e-03,2.80e+01,
196,-8.00e-03,2.80e+01,
197,-8.00e-03,2.80e+01,
198,-8.00e-03,2.84e+01,
199,-4.00e-03,2.84e+01,
200,-8.00e-03,2.84e+01,
201,-8.00e-03,2.84e+01,
202,-8.00e-03,2.88e+01,
203,-8.00e-03,2.88e+01,
204,-8.00e-03,2.88e+01,
205,-4.00e-03,2.88e+01,
206,-8.00e-03,2.88e+01,
207,-4.00e-03,2.88e+01,
208,-8.00e-03,2.88e+01,
209,-8.00e-03,2.88e+01,
210,-8.00e-03,2.92e+01,
211,-8.00e-03,2.92e+01,
212,-8.00e-03,2.92e+01,
213,-4.00e-03,2.92e+01,
214,-8.00e-03,2.92e+01,
215,-4.00e-03,2.92e+01,
216,-8.00e-03,2.92e+01,
217,-8.00e-03,2.92e+01,
218,-8.00e-03,2.92e+01,
219,-8.00e-03,2.96e+01,
220,-8.00e-03,2.92e+01,
221,-8.00e-03,2.92e+01,
222,-8.00e-03,2.92e+01,
223,-8.00e-03,2.92e+01,
224,-8.00e-03,2.92e+01,
225,-8.00e-03,2.92e+01,
226,-8.00e-03,2.92e+01,
227,-8.00e-03,2.92e+01,
228,-8.00e-03,2.92e+01,
229,-8.00e-03,2.92e+01,
230,-1.20e-02,2.92e+01,
231,-4.00e-03,2.92e+01,
232,-8.00e-03,2.92e+01,
233,-8.00e-03,2.92e+01,
234,-8.00e-03,2.92e+01,
235,-8.00e-03,2.92e+01,
236,-8.00e-03,2.88e+01,
237,-8.00e-03,2.88e+01,
238,-8.00e-03,2.88e+01,
239,-8.00e-03,2.88e+01,
240,-8.00e-03,2.88e+01,
241,-8.00e-03,2.88e+01,
242,-1.20e-02,2.88e+01,
243,-8.00e-03,2.88e+01,
244,-8.00e-03,2.84e+01,
245,-8.00e-03,2.84e+01,
246,-8.00e-03,2.84e+01,
247,-8.00e-03,2.84e+01,
248,-8.00e-03,2.84e+01,
249,-8.00e-03,2.84e+01,
250,-8.00e-03,2.80e+01,
251,-8.00e-03,2.84e+01,
252,-8.00e-03,2.80e+01,
253,-8.00e-03,2.80e+01,
254,-1.20e-02,2.80e+01,
255,-8.00e-03,2.80e+01,
256,-8.00e-03,2.76e+01,
257,-8.00e-03,2.76e+01,
258,-8.00e-03,2.76e+01,
259,-8.00e-03,2.76e+01,
260,-8.00e-03,2.72e+01,
261,-8.00e-03,2.72e+01,
262,-1.20e-02,2.72e+01,
263,-8.00e-03,2.72e+01,
264,-8.00e-03,2.68e+01,
265,-8.00e-03,2.68e+01,
266,-8.00e-03,2.68e+01,
267,-8.00e-03,2.64e+01,
268,-1.20e-02,2.64e+01,
269,-8.00e-03,2.64e+01,
270,-1.20e-02,2.64e+01,
271,-8.00e-03,2.64e+01,
272,-1.20e-02,2.60e+01,
273,-8.00e-03,2.56e+01,
274,-1.20e-02,2.56e+01,
275,-8.00e-03,2.56e+01,
276,-8.00e-03,2.52e+01,
277,-8.00e-03,2.52e+01,
278,-1.20e-02,2.52e+01,
279,-8.00e-03,2.52e+01,
280,-1.20e-02,2.48e+01,
281,-1.20e-02,2.48e+01,
282,-1.20e-02,2.48e+01,
283,-8.00e-03,2.48e+01,
284,-8.00e-03,2.44e+01,
285,-8.00e-03,2.40e+01,
286,-1.20e-02,2.40e+01,
287,-8.00e-03,2.40e+01,
288,-8.00e-03,2.36e+01,
289,-1.20e-02,2.36e+01,
290,-8.00e-03,2.36e+01,
291,-8.00e-03,2.36e+01,
292,-8.00e-03,2.28e+01,
293,-8.00e-03,2.24e+01,
294,-1.20e-02,2.24e+01,
295,-8.00e-03,2.24e+01,
296,-8.00e-03,2.20e+01,
297,-8.00e-03,2.20e+01,
298,-1.20e-02,2.20e+01,
299,-8.00e-03,2.16e+01,
300,-8.00e-03,2.16e+01,
301,-8.00e-03,2.16e+01,
302,-1.20e-02,2.12e+01,
303,-8.00e-03,2.12e+01,
304,-8.00e-03,2.08e+01,
305,-1.20e-02,2.08e+01,
306,-1.20e-02,2.08e+01,
307,-8.00e-03,2.04e+01,
308,-8.00e-03,2.04e+01,
309,-8.00e-03,2.00e+01,
310,-1.20e-02,2.00e+01,
311,-8.00e-03,2.00e+01,
312,-8.00e-03,1.96e+01,
313,-8.00e-03,1.96e+01,
314,-8.00e-03,1.96e+01,
315,-8.00e-03,1.92e+01,
316,-8.00e-03,1.92e+01,
317,-8.00e-03,1.92e+01,
318,-1.20e-02,1.88e+01,
319,-8.00e-03,1.88e+01,
320,-8.00e-03,1.88e+01,
321,-8.00e-03,1.84e+01,
322,-1.20e-02,1.84e+01,
323,-8.00e-03,1.84e+01,
324,-8.00e-03,1.80e+01,
325,-8.00e-03,1.80e+01,
326,-8.00e-03,1.80e+01,
327,-8.00e-03,1.76e+01,
328,-8.00e-03,1.76e+01,
329,-8.00e-03,1.72e+01,
330,-8.00e-03,1.72e+01,
331,-8.00e-03,1.72e+01,
332,-8.00e-03,1.68e+01,
333,-8.00e-03,1.68e+01,
334,-8.00e-03,1.68e+01,
335,-4.00e-03,1.64e+01,
336,-1.20e-02,1.64e+01,
337,-8.00e-03,1.64e+01,
338,-1.20e-02,1.64e+01,
339,-8.00e-03,1.60e+01,
340,-8.00e-03,1.60e+01,
341,-8.00e-03,1.52e+01,
342,-8.00e-03,1.60e+01,
343,-8.00e-03,1.52e+01,
344,-1.20e-02,1.52e+01,
345,-8.00e-03,1.48e+01,
346,-8.00e-03,1.48e+01,
347,-8.00e-03,1.48e+01,
348,-8.00e-03,1.44e+01,
349,-4.00e-03,1.44e+01,
350,-1.20e-02,1.44e+01,
351,-8.00e-03,1.44e+01,
352,-8.00e-03,1.40e+01,
353,-8.00e-03,1.40e+01,
354,-8.00e-03,1.40e+01,
355,-8.00e-03,1.40e+01,
356,-8.00e-03,1.36e+01,
357,-8.00e-03,1.36e+01,
358,-8.00e-03,1.36e+01,
359,-8.00e-03,1.36e+01,
360,-8.00e-03,1.32e+01,
361,-8.00e-03,1.32e+01,
362,-8.00e-03,1.32e+01,
363,-8.00e-03,1.32e+01,
364,-8.00e-03,1.28e+01,
365,-4.00e-03,1.28e+01,
366,-8.00e-03,1.28e+01,
367,-8.00e-03,1.28e+01,
368,-8.00e-03,1.24e+01,
369,-8.00e-03,1.24e+01,
370,-8.00e-03,1.28e+01,
371,-4.00e-03,1.24e+01,
372,-8.00e-03,1.20e+01,
373,-8.00e-03,1.20e+01,
374,-8.00e-03,1.20e+01,
375,-8.00e-03,1.20e+01,
376,-4.00e-03,1.20e+01,
377,-4.00e-03,1.20e+01,
378,-8.00e-03,1.20e+01,
379,-8.00e-03,1.16e+01,
380,-8.00e-03,1.16e+01,
381,-4.00e-03,1.16e+01,
382,-8.00e-03,1.16e+01,
383,-4.00e-03,1.16e+01,
384,-8.00e-03,1.12e+01,
385,-8.00e-03,1.12e+01,
386,-8.00e-03,1.16e+01,
387,-4.00e-03,1.12e+01,
388,-4.00e-03,1.12e+01,
389,-4.00e-03,1.12e+01,
390,-8.00e-03,1.12e+01,
391,-4.00e-03,1.12e+01,
392,-8.00e-03,1.08e+01,
393,-8.00e-03,1.08e+01,
394,-4.00e-03,1.12e+01,
395,-4.00e-03,1.08e+01,
396,-4.00e-03,1.08e+01,
397,-4.00e-03,1.04e+01,
398,-8.00e-03,1.08e+01,
399,-4.00e-03,1.08e+01,
400,-4.00e-03,1.04e+01,
401,-4.00e-03,1.04e+01,
402,-4.00e-03,1.04e+01,
403,-4.00e-03,1.04e+01,
404,-4.00e-03,1.04e+01,
405,-4.00e-03,1.04e+01,
406,-8.00e-03,1.04e+01,
407,-4.00e-03,1.04e+01,
408,-4.00e-03,1.00e+01,
409,-4.00e-03,1.04e+01,
410,-4.00e-03,1.04e+01,
411,-4.00e-03,1.00e+01,
412,-4.00e-03,1.00e+01,
413,-4.00e-03,1.00e+01,
414,-8.00e-03,1.04e+01,
415,-4.00e-03,1.00e+01,
416,-4.00e-03,1.00e+01,
417,-4.00e-03,1.00e+01,
418,-8.00e-03,1.04e+01,
419,-4.00e-03,1.00e+01,
420,-4.00e-03,1.00e+01,
421,-4.00e-03,1.00e+01,
422,-8.00e-03,1.00e+01,
423,-4.00e-03,1.00e+01,
424,-4.00e-03,1.00e+01,
425,-4.00e-03,1.00e+01,
426,-4.00e-03,1.00e+01,
427,-4.00e-03,1.00e+01,
428,-4.00e-03,1.00e+01,
429,-4.00e-03,1.00e+01,
430,-4.00e-03,1.00e+01,
431,-4.00e-03,1.00e+01,
432,-4.00e-03,1.00e+01,
433,-4.00e-03,1.00e+01,
434,-4.00e-03,1.00e+01,
435,-4.00e-03,1.00e+01,
436,-4.00e-03,1.00e+01,
437,-4.00e-03,1.00e+01,
438,-4.00e-03,1.00e+01,
439,0.00e+00,1.00e+01,
440,-4.00e-03,1.00e+01,
441,-4.00e-03,1.00e+01,
442,-4.00e-03,1.04e+01,
443,-4.00e-03,1.00e+01,
444,-4.00e-03,1.00e+01,
445,0.00e+00,1.00e+01,
446,-4.00e-03,1.04e+01,
447,-4.00e-03,1.00e+01,
448,-4.00e-03,1.00e+01,
449,-4.00e-03,1.04e+01,
450,-4.00e-03,1.04e+01,
451,0.00e+00,1.04e+01,
452,-4.00e-03,1.04e+01,
453,-4.00e-03,1.04e+01,
454,-4.00e-03,1.04e+01,
455,-4.00e-03,1.04e+01,
456,-4.00e-03,1.04e+01,
457,-4.00e-03,1.04e+01,
458,-4.00e-03,1.08e+01,
459,-4.00e-03,1.04e+01,
460,-4.00e-03,1.04e+01,
461,-4.00e-03,1.08e+01,
462,-4.00e-03,1.08e+01,
463,0.00e+00,1.08e+01,
464,-4.00e-03,1.08e+01,
465,-4.00e-03,1.08e+01,
466,-4.00e-03,1.08e+01,
467,-4.00e-03,1.08e+01,
468,-4.00e-03,1.08e+01,
469,0.00e+00,1.08e+01,
470,-4.00e-03,1.12e+01,
471,0.00e+00,1.12e+01,
472,-4.00e-03,1.12e+01,
473,-4.00e-03,1.12e+01,
474,-4.00e-03,1.16e+01,
475,0.00e+00,1.12e+01,
476,-4.00e-03,1.12e+01,
477,-4.00e-03,1.16e+01,
478,-4.00e-03,1.16e+01,
479,0.00e+00,1.16e+01,
480,-4.00e-03,1.16e+01,
481,-4.00e-03,1.20e+01,
482,-4.00e-03,1.20e+01,
483,0.00e+00,1.20e+01,
484,0.00e+00,1.20e+01,
485,-4.00e-03,1.20e+01,
486,-4.00e-03,1.20e+01,
487,0.00e+00,1.24e+01,
488,0.00e+00,1.24e+01,
489,-4.00e-03,1.24e+01,
490,-4.00e-03,1.24e+01,
491,-4.00e-03,1.24e+01,
492,-4.00e-03,1.24e+01,
493,-4.00e-03,1.28e+01,
494,-4.00e-03,1.28e+01,
495,0.00e+00,1.28e+01,
496,-4.00e-03,1.28e+01,
497,-4.00e-03,1.28e+01,
498,-4.00e-03,1.32e+01,
499,0.00e+00,1.32e+01,
500,-4.00e-03,1.32e+01,
501,0.00e+00,1.32e+01,
502,-4.00e-03,1.36e+01,
503,0.00e+00,1.36e+01,
504,-4.00e-03,1.36e+01,
505,-4.00e-03,1.40e+01,
506,-4.00e-03,1.40e+01,
507,0.00e+00,1.40e+01,
508,0.00e+00,1.40e+01,
509,-4.00e-03,1.40e+01,
510,-4.00e-03,1.44e+01,
511,0.00e+00,1.44e+01,
512,-4.00e-03,1.44e+01,
513,-4.00e-03,1.44e+01,
514,-4.00e-03,1.48e+01,
515,-4.00e-03,1.48e+01,
516,-4.00e-03,1.48e+01,
517,-4.00e-03,1.48e+01,
518,-4.00e-03,1.52e+01,
519,-4.00e-03,1.52e+01,
520,-4.00e-03,1.52e+01,
521,0.00e+00,1.60e+01,
522,-4.00e-03,1.60e+01,
523,-4.00e-03,1.60e+01,
524,0.00e+00,1.64e+01,
525,-4.00e-03,1.64e+01,
526,-8.00e-03,1.68e+01,
527,0.00e+00,1.68e+01,
528,-4.00e-03,1.68e+01,
529,0.00e+00,1.68e+01,
530,-4.00e-03,1.72e+01,
531,-4.00e-03,1.72e+01,
532,-4.00e-03,1.72e+01,
533,0.00e+00,1.72e+01,
534,-4.00e-03,1.76e+01,
535,-4.00e-03,1.76e+01,
536,-4.00e-03,1.76e+01,
537,-4.00e-03,1.80e+01,
538,-4.00e-03,1.80e+01,
539,-4.00e-03,1.80e+01,
540,-4.00e-03,1.84e+01,
541,-4.00e-03,1.84e+01,
542,-4.00e-03,1.88e+01,
543,-4.00e-03,1.88e+01,
544,-4.00e-03,1.88e+01,
545,-4.00e-03,1.88e+01,
546,-4.00e-03,1.92e+01,
547,0.00e+00,1.92e+01,
548,-4.00e-03,1.92e+01,
549,-4.00e-03,1.96e+01,
550,-4.00e-03,1.96e+01,
551,-4.00e-03,1.96e+01,
552,-4.00e-03,2.00e+01,
553,-4.00e-03,2.00e+01,
554,-4.00e-03,2.04e+01,
555,-4.00e-03,2.04e+01,
556,-4.00e-03,2.04e+01,
557,-4.00e-03,2.04e+01,
558,-4.00e-03,2.08e+01,
559,-4.00e-03,2.08e+01,
560,-4.00e-03,2.12e+01,
561,-4.00e-03,2.12e+01,
562,-4.00e-03,2.12e+01,
563,-4.00e-03,2.16e+01,
564,-4.00e-03,2.16e+01,
565,-4.00e-03,2.16e+01,
566,-8.00e-03,2.20e+01,
567,-4.00e-03,2.20e+01,
568,-4.00e-03,2.20e+01,
569,-4.00e-03,2.20e+01,
570,-8.00e-03,2.24e+01,
571,-4.00e-03,2.24e+01,
572,-4.00e-03,2.24e+01,
573,-4.00e-03,2.28e+01,
574,-8.00e-03,2.28e+01,
575,-4.00e-03,2.36e+01,
576,-4.00e-03,2.36e+01,
577,-4.00e-03,2.36e+01,
578,-4.00e-03,2.40e+01,
579,-4.00e-03,2.40e+01,
580,-4.00e-03,2.40e+01,
581,-4.00e-03,2.44e+01,
582,-8.00e-03,2.44e+01,
583,-4.00e-03,2.44e+01,
584,-8.00e-03,2.44e+01,
585,-8.00e-03,2.48e+01,
586,-8.00e-03,2.48e+01,
587,-4.00e-03,2.48e+01,
588,-4.00e-03,2.48e+01,
589,-8.00e-03,2.52e+01,
590,-8.00e-03,2.52e+01,
591,-4.00e-03,2.56e+01,
592,-8.00e-03,2.52e+01,
593,-4.00e-03,2.56e+01,
594,-4.00e-03,2.56e+01,
595,-4.00e-03,2.56e+01,
596,-4.00e-03,2.60e+01,
597,-4.00e-03,2.60e+01,
598,-8.00e-03,2.60e+01,
599,-4.00e-03,2.60e+01,
600,-4.00e-03,2.60e+01,
601,-8.00e-03,2.64e+01,
602,-8.00e-03,2.64e+01,
603,-4.00e-03,2.64e+01,
604,-4.00e-03,2.64e+01,
605,-8.00e-03,2.64e+01,
606,-8.00e-03,2.68e+01,
607,-4.00e-03,2.68e+01,
608,-8.00e-03,2.68e+01,
609,-8.00e-03,2.68e+01,
610,-8.00e-03,2.72e+01,
611,-4.00e-03,2.72e+01,
612,-8.00e-03,2.72e+01,
613,-8.00e-03,2.72e+01,
614,-8.00e-03,2.72e+01,
615,-4.00e-03,2.76e+01,
616,-8.00e-03,2.72e+01,
617,-8.00e-03,2.76e+01,
618,-8.00e-03,2.76e+01,
619,-8.00e-03,2.76e+01,
620,-8.00e-03,2.76e+01,
621,-8.00e-03,2.76e+01,
622,-8.00e-03,2.76e+01,
623,-4.00e-03,2.76e+01,
624,-8.00e-03,2.76e+01,
625,-8.00e-03,2.76e+01,
626,-8.00e-03,2.80e+01,
627,-4.00e-03,2.80e+01,
628,-8.00e-03,2.76e+01,
629,-8.00e-03,2.80e+01,
630,-8.00e-03,2.80e+01,
631,-8.00e-03,2.80e+01,
632,-8.00e-03,2.80e+01,
633,-8.00e-03,2.76e+01,
634,-8.00e-03,2.80e+01,
635,-8.00e-03,2.80e+01,
636,-8.00e-03,2.80e+01,
637,-8.00e-03,2.80e+01,
638,-8.00e-03,2.80e+01,
639,-4.00e-03,2.80e+01,
640,-8.00e-03,2.80e+01,
641,-8.00e-03,2.80e+01,
642,-8.00e-03,2.80e+01,
643,-4.00e-03,2.80e+01,
644,-8.00e-03,2.80e+01,
645,-8.00e-03,2.76e+01,
646,-8.00e-03,2.80e+01,
647,-8.00e-03,2.80e+01,
648,-8.00e-03,2.76e+01,
649,-8.00e-03,2.76e+01,
650,-8.00e-03,2.76e+01,
651,-8.00e-03,2.76e+01,
652,-8.00e-03,2.76e+01,
653,-4.00e-03,2.76e+01,
654,-8.00e-03,2.76e+01,
655,-8.00e-03,2.76e+01,
656,-8.00e-03,2.72e+01,
657,-8.00e-03,2.76e+01,
658,-8.00e-03,2.76e+01,
659,-8.00e-03,2.76e+01,
660,-8.00e-03,2.72e+01,
661,-8.00e-03,2.72e+01,
662,-8.00e-03,2.72e+01,
663,-8.00e-03,2.72e+01,
664,-8.00e-03,2.68e+01,
665,-8.00e-03,2.68e+01,
666,-8.00e-03,2.68e+01,
667,-8.00e-03,2.68e+01,
668,-8.00e-03,2.68e+01,
669,-8.00e-03,2.68e+01,
670,-1.20e-02,2.64e+01,
671,-8.00e-03,2.68e+01,
672,-1.20e-02,2.64e+01,
673,-8.00e-03,2.64e+01,
674,-8.00e-03,2.64e+01,
675,-8.00e-03,2.64e+01,
676,-8.00e-03,2.60e+01,
677,-8.00e-03,2.60e+01,
678,-1.20e-02,2.60e+01,
679,-8.00e-03,2.60e+01,
680,-8.00e-03,2.56e+01,
681,-8.00e-03,2.56e+01,
682,-8.00e-03,2.56e+01,
683,-8.00e-03,2.52e+01,
684,-8.00e-03,2.52e+01,
685,-8.00e-03,2.52e+01,
686,-1.20e-02,2.52e+01,
687,-8.00e-03,2.52e+01,
688,-8.00e-03,2.48e+01,
689,-8.00e-03,2.48e+01,
690,-8.00e-03,2.48e+01,
691,-8.00e-03,2.48e+01,
692,-8.00e-03,2.44e+01,
693,-8.00e-03,2.40e+01,
694,-1.20e-02,2.40e+01,
695,-8.00e-03,2.40e+01,
696,-8.00e-03,2.40e+01,
697,-8.00e-03,2.36e+01,
698,-1.20e-02,2.36e+01,
699,-8.00e-03,2.36e+01,
700,-8.00e-03,2.28e+01,
701,-8.00e-03,2.28e+01,
702,-8.00e-03,2.28e+01,
703,-8.00e-03,2.28e+01,
704,-8.00e-03,2.24e+01,
705,-1.20e-02,2.24e+01,
706,-8.00e-03,2.24e+01,
707,-8.00e-03,2.20e+01,
708,-8.00e-03,2.20e+01,
709,-8.00e-03,2.20e+01,
710,-1.20e-02,2.20e+01,
711,-8.00e-03,2.16e+01,
712,-1.20e-02,2.12e+01,
713,-8.00e-03,2.12e+01,
714,-8.00e-03,2.12e+01,
715,-8.00e-03,2.12e+01,
716,-8.00e-03,2.08e+01,
717,-8.00e-03,2.08e+01,
718,-1.20e-02,2.08e+01,
719,-8.00e-03,2.04e+01,
720,-8.00e-03,2.04e+01,
721,-8.00e-03,2.04e+01,
722,-8.00e-03,2.00e+01,
723,-8.00e-03,2.00e+01,
724,-8.00e-03,1.96e+01,
725,-8.00e-03,1.96e+01,
726,-1.20e-02,1.96e+01,
727,-8.00e-03,1.96e+01,
728,-8.00e-03,1.92e+01,
729,-8.00e-03,1.92e+01,
730,-8.00e-03,1.92e+01,
731,-8.00e-03,1.88e+01,
732,-8.00e-03,1.88e+01,
733,-8.00e-03,1.88e+01,
734,-1.20e-02,1.88e+01,
735,-8.00e-03,1.84e+01,
736,-8.00e-03,1.84e+01,
737,-8.00e-03,1.80e+01,
738,-8.00e-03,1.80e+01,
739,-8.00e-03,1.80e+01,
740,-8.00e-03,1.76e+01,
741,-8.00e-03,1.76e+01,
742,-1.20e-02,1.76e+01,
743,-8.00e-03,1.76e+01,
744,-8.00e-03,1.72e+01,
745,-8.00e-03,1.72e+01,
746,-8.00e-03,1.72e+01,
747,-8.00e-03,1.68e+01,
748,-8.00e-03,1.68e+01,
749,-8.00e-03,1.68e+01,
750,-8.00e-03,1.68e+01,
751,-8.00e-03,1.64e+01,
752,-8.00e-03,1.64e+01,
753,-8.00e-03,1.64e+01,
754,-8.00e-03,1.64e+01,
755,-8.00e-03,1.60e+01,
756,-8.00e-03,1.60e+01,
757,-8.00e-03,1.52e+01,
758,-1.20e-02,1.60e+01,
759,-4.00e-03,1.52e+01,
760,-8.00e-03,1.52e+01,
761,-8.00e-03,1.48e+01,
762,-8.00e-03,1.52e+01,
763,-8.00e-03,1.48e+01,
764,-8.00e-03,1.44e+01,
765,-8.00e-03,1.44e+01,
766,-8.00e-03,1.44e+01,
767,-4.00e-03,1.44e+01,
768,-8.00e-03,1.44e+01,
769,-8.00e-03,1.44e+01,
770,-8.00e-03,1.44e+01,
771,-4.00e-03,1.40e+01,
772,-8.00e-03,1.40e+01,
773,-8.00e-03,1.40e+01,
774,-8.00e-03,1.40e+01,
775,-4.00e-03,1.36e+01,
776,-8.00e-03,1.36e+01,
777,-8.00e-03,1.36e+01,
778,-8.00e-03,1.36e+01,
779,-4.00e-03,1.32e+01,
780,-8.00e-03,1.32e+01,
781,-8.00e-03,1.32e+01,
782,-8.00e-03,1.32e+01,
783,-4.00e-03,1.32e+01,
784,-8.00e-03,1.28e+01,
785,-8.00e-03,1.28e+01,
786,-8.00e-03,1.28e+01,
787,-4.00e-03,1.28e+01,
788,-8.00e-03,1.28e+01,
789,-8.00e-03,1.24e+01,
790,-8.00e-03,1.24e+01,
791,-8.00e-03,1.28e+01,
792,-8.00e-03,1.20e+01,
793,-8.00e-03,1.24e+01,
794,-4.00e-03,1.24e+01,
795,-8.00e-03,1.20e+01,
796,-8.00e-03,1.20e+01,
797,-4.00e-03,1.20e+01,
798,-8.00e-03,1.20e+01,
799,-4.00e-03,1.20e+01,
800,-8.00e-03,1.16e+01,
801,-8.00e-03,1.20e+01,
802,-8.00e-03,1.20e+01,
803,-4.00e-03,1.16e+01,
804,-4.00e-03,1.16e+01,
805,-8.00e-03,1.16e+01,
806,-8.00e-03,1.16e+01,
807,-4.00e-03,1.16e+01,
808,-8.00e-03,1.12e+01,
809,-4.00e-03,1.16e+01,
810,-8.00e-03,1.16e+01,
811,-4.00e-03,1.12e+01,
812,-8.00e-03,1.12e+01,
813,-4.00e-03,1.12e+01,
814,-8.00e-03,1.12e+01,
815,-4.00e-03,1.12e+01,
816,-8.00e-03,1.12e+01,
817,-4.00e-03,1.12e+01,
818,-8.00e-03,1.12e+01,
819,-4.00e-03,1.08e+01,
820,-4.00e-03,1.08e+01,
821,-4.00e-03,1.12e+01,
822,-8.00e-03,1.12e+01,
823,-4.00e-03,1.12e+01,
824,-4.00e-03,1.08e+01,
825,-4.00e-03,1.12e+01,
826,-4.00e-03,1.08e+01,
827,-4.00e-03,1.08e+01,
828,-4.00e-03,1.08e+01,
829,-4.00e-03,1.08e+01,
830,-8.00e-03,1.08e+01,
831,0.00e+00,1.08e+01,
832,-4.00e-03,1.08e+01,
833,-4.00e-03,1.08e+01,
834,-4.00e-03,1.08e+01,
835,-4.00e-03,1.08e+01,
836,-4.00e-03,1.08e+01,
